[
    {
        "id": "1",
        "label": "DELF",
        "program_ids": [4]
    },
    {
        "id": "2",
        "label": "DALF",
        "program_ids": [4]
    },
    {
        "id": "3",
        "label": "TCF",
        "program_ids": [4]
    },
    {
        "id": "4",
        "label": "TCF Canada",
        "program_ids": [4]
    },
    {
        "id": "5",
        "label": "TEF",
        "program_ids": [4]
    },
    {
        "id": "6",
        "label": "TEF Canada",
        "program_ids": [4]
    },
    {
        "id": "7",
        "label": "IELTS",
        "program_ids": [4, 31]
    },
    {
        "id": "8",
        "label": "TOEIC",
        "program_ids": [4, 31]
    },
    {
        "id": "9",
        "label": "TOFEL",
        "program_ids": [4, 31]
    },
    {
        "id": "10",
        "label": "PCE",
        "program_ids": [32]
    },
    {
        "id": "11",
        "label": "EBAU",
        "program_ids": [32]
    }
]
