[
    {
        "Muni": "Agadir"
    },
    {
        "Muni": "Agdz"
    },
    {
        "Muni": "Agourai"
    },
    {
        "Muni": "Ahfir"
    },
    {
        "Muni": "Ain Attig"
    },
    {
        "Muni": "Ain Bni Mathar"
    },
    {
        "Muni": "Ain El Aouda"
    },
    {
        "Muni": "Ain Erreggada"
    },
    {
        "Muni": "Ain Harrouda"
    },
    {
        "Muni": "Ain Taoujdate"
    },
    {
        "Muni": "Ait Baha"
    },
    {
        "Muni": "Ait Daoud"
    },
    {
        "Muni": "Ait Iaaza"
    },
    {
        "Muni": "Ait Melloul"
    },
    {
        "Muni": "Ait Ourir"
    },
    {
        "Muni": "Ajdir"
    },
    {
        "Muni": "Akka"
    },
    {
        "Muni": "Aklim"
    },
    {
        "Muni": "Aknoul"
    },
    {
        "Muni": "Al Aaroui"
    },
    {
        "Muni": "Al Hoceima"
    },
    {
        "Muni": "Al Machouar - Stinia"
    },
    {
        "Muni": "Amizmiz"
    },
    {
        "Muni": "Aoulouz"
    },
    {
        "Muni": "Arfoud"
    },
    {
        "Muni": "Assa"
    },
    {
        "Muni": "Assilah"
    },
    {
        "Muni": "Azemmour"
    },
    {
        "Muni": "Azilal"
    },
    {
        "Muni": "Azrou"
    },
    {
        "Muni": "Bejaad"
    },
    {
        "Muni": "Ben Ahmed"
    },
    {
        "Muni": "Ben Guerir"
    },
    {
        "Muni": "Ben Taieb"
    },
    {
        "Muni": "Béni Mellal"
    },
    {
        "Muni": "Benslimane"
    },
    {
        "Muni": "Berkane"
    },
    {
        "Muni": "Berrechid"
    },
    {
        "Muni": "Bhalil"
    },
    {
        "Muni": "Biougra"
    },
    {
        "Muni": "Bni Ansar"
    },
    {
        "Muni": "Bni Bouayach"
    },
    {
        "Muni": "Bni Drar"
    },
    {
        "Muni": "Bouarfa"
    },
    {
        "Muni": "Boudnib"
    },
    {
        "Muni": "Boufakrane"
    },
    {
        "Muni": "Bouizakarne"
    },
    {
        "Muni": "Boujdour"
    },
    {
        "Muni": "Boujniba"
    },
    {
        "Muni": "Boulemane"
    },
    {
        "Muni": "Boumalne Dades"
    },
    {
        "Muni": "Bouskoura"
    },
    {
        "Muni": "Bouznika"
    },
    {
        "Muni": "Casablanca"
    },
    {
        "Muni": "Chefchaouen"
    },
    {
        "Muni": "Chichaoua"
    },
    {
        "Muni": "Dakhla"
    },
    {
        "Muni": "Dar Bouazza"
    },
    {
        "Muni": "Dar Gueddari"
    },
    {
        "Muni": "Dcheira El Jihadia"
    },
    {
        "Muni": "Debdou"
    },
    {
        "Muni": "Demnate"
    },
    {
        "Muni": "Deroua"
    },
    {
        "Muni": "Driouch"
    },
    {
        "Muni": "Echemmaia"
    },
    {
        "Muni": "El Aioun Sidi Mellouk"
    },
    {
        "Muni": "El Borouj"
    },
    {
        "Muni": "El Gara"
    },
    {
        "Muni": "El Guerdane"
    },
    {
        "Muni": "El Hajeb"
    },
    {
        "Muni": "El Hanchane"
    },
    {
        "Muni": "El Jadida"
    },
    {
        "Muni": "El Kelaâ des Sraghna"
    },
    {
        "Muni": "El Ksiba"
    },
    {
        "Muni": "El Mansouria"
    },
    {
        "Muni": "El Marsa"
    },
    {
        "Muni": "El Menzel"
    },
    {
        "Muni": "El Ouatia"
    },
    {
        "Muni": "Er-rich"
    },
    {
        "Muni": "Errachidia"
    },
    {
        "Muni": "Es-semara"
    },
    {
        "Muni": "Essaouira"
    },
    {
        "Muni": "Fam El Hisn"
    },
    {
        "Muni": "Fès"
    },
    {
        "Muni": "Figuig"
    },
    {
        "Muni": "Fnideq"
    },
    {
        "Muni": "Foum Zguid"
    },
    {
        "Muni": "Fquih Ben Salah"
    },
    {
        "Muni": "Ghafsai"
    },
    {
        "Muni": "Goulmima"
    },
    {
        "Muni": "Guelmim"
    },
    {
        "Muni": "Guercif"
    },
    {
        "Muni": "Gueznaia"
    },
    {
        "Muni": "Had Kourt"
    },
    {
        "Muni": "Had Soualem"
    },
    {
        "Muni": "Harhoura"
    },
    {
        "Muni": "Hattane"
    },
    {
        "Muni": "Ifrane"
    },
    {
        "Muni": "Imintanoute"
    },
    {
        "Muni": "Imouzzer Kandar"
    },
    {
        "Muni": "Imouzzer Marmoucha"
    },
    {
        "Muni": "Imzouren"
    },
    {
        "Muni": "Inezgane"
    },
    {
        "Muni": "Irherm"
    },
    {
        "Muni": "Jamaat Shaim"
    },
    {
        "Muni": "Jerada"
    },
    {
        "Muni": "Jorf"
    },
    {
        "Muni": "Jorf El Melha"
    },
    {
        "Muni": "Kalaat M'Gouna"
    },
    {
        "Muni": "Karia Ba Mohamed"
    },
    {
        "Muni": "Kasba Tadla"
    },
    {
        "Muni": "Kénitra"
    },
    {
        "Muni": "Khémisset"
    },
    {
        "Muni": "Khenifra"
    },
    {
        "Muni": "Khouribga"
    },
    {
        "Muni": "Ksar El Kebir"
    },
    {
        "Muni": "Laattaouia"
    },
    {
        "Muni": "Laayoune"
    },
    {
        "Muni": "Lagouira"
    },
    {
        "Muni": "Lahraouyine"
    },
    {
        "Muni": "Lakhsas"
    },
    {
        "Muni": "Larache"
    },
    {
        "Muni": "Lbir Jdid"
    },
    {
        "Muni": "Loulad"
    },
    {
        "Muni": "Lqliaa"
    },
    {
        "Muni": "M'Diq"
    },
    {
        "Muni": "M'Rirt"
    },
    {
        "Muni": "Marrakech"
    },
    {
        "Muni": "Martil"
    },
    {
        "Muni": "Mechraa Bel Ksiri"
    },
    {
        "Muni": "Mediouna"
    },
    {
        "Muni": "Mehdya"
    },
    {
        "Muni": "Meknès"
    },
    {
        "Muni": "Midar"
    },
    {
        "Muni": "Midelt"
    },
    {
        "Muni": "Missour"
    },
    {
        "Muni": "Mohammadia"
    },
    {
        "Muni": "Moulay Ali Cherif"
    },
    {
        "Muni": "Moulay Driss Zerhoun"
    },
    {
        "Muni": "Moulay Yacoub"
    },
    {
        "Muni": "Nador"
    },
    {
        "Muni": "Naima"
    },
    {
        "Muni": "Nouaceur"
    },
    {
        "Muni": "Ouarzazate"
    },
    {
        "Muni": "Oued Amlil"
    },
    {
        "Muni": "Oued Laou"
    },
    {
        "Muni": "Oued Zem"
    },
    {
        "Muni": "Ouezzane"
    },
    {
        "Muni": "Ouislane"
    },
    {
        "Muni": "Oujda"
    },
    {
        "Muni": "Oulad Abbou"
    },
    {
        "Muni": "Oulad Berhil"
    },
    {
        "Muni": "Oulad M'Rah"
    },
    {
        "Muni": "Oulad Teima"
    },
    {
        "Muni": "Ouled Ayad"
    },
    {
        "Muni": "Outat El Haj"
    },
    {
        "Muni": "Rabat"
    },
    {
        "Muni": "Ras El Ma"
    },
    {
        "Muni": "Ribate El Kheir"
    },
    {
        "Muni": "Rommani"
    },
    {
        "Muni": "Sabaa Aiyoun"
    },
    {
        "Muni": "Safi"
    },
    {
        "Muni": "Saidia"
    },
    {
        "Muni": "Salé"
    },
    {
        "Muni": "Sebt Gzoula"
    },
    {
        "Muni": "Sefrou"
    },
    {
        "Muni": "Selouane"
    },
    {
        "Muni": "Settat"
    },
    {
        "Muni": "Sidi Allal El Bahraoui"
    },
    {
        "Muni": "Sidi Bennour"
    },
    {
        "Muni": "Sidi Bou Othmane"
    },
    {
        "Muni": "Sidi Bouknadel"
    },
    {
        "Muni": "Sidi Ifni"
    },
    {
        "Muni": "Sidi Kacem"
    },
    {
        "Muni": "Sidi Rahal Chatai"
    },
    {
        "Muni": "Sidi Rahhal"
    },
    {
        "Muni": "Sidi Slimane"
    },
    {
        "Muni": "Sidi Slimane Echcharraa"
    },
    {
        "Muni": "Sidi Yahya El Gharb"
    },
    {
        "Muni": "Skhirate"
    },
    {
        "Muni": "Souk El Arbaa"
    },
    {
        "Muni": "Souk Sebt Ouled Nemma"
    },
    {
        "Muni": "Tafraout"
    },
    {
        "Muni": "Tahannaout"
    },
    {
        "Muni": "Tahla"
    },
    {
        "Muni": "Taliouine"
    },
    {
        "Muni": "Talmest"
    },
    {
        "Muni": "Tamallalt"
    },
    {
        "Muni": "Tamanar"
    },
    {
        "Muni": "Tan Tan"
    },
    {
        "Muni": "Taounate"
    },
    {
        "Muni": "Taourirt"
    },
    {
        "Muni": "Tarfaya"
    },
    {
        "Muni": "Targuist"
    },
    {
        "Muni": "Taroudannt"
    },
    {
        "Muni": "Tata"
    },
    {
        "Muni": "Taza"
    },
    {
        "Muni": "Taznakht"
    },
    {
        "Muni": "Témara"
    },
    {
        "Muni": "Tétouan"
    },
    {
        "Muni": "Thar Es-souk"
    },
    {
        "Muni": "Tiflet"
    },
    {
        "Muni": "Tinejdad"
    },
    {
        "Muni": "Tinghir"
    },
    {
        "Muni": "Tissa"
    },
    {
        "Muni": "Tit Mellil"
    },
    {
        "Muni": "Tiznit"
    },
    {
        "Muni": "Touarga"
    },
    {
        "Muni": "Touissit"
    },
    {
        "Muni": "Toulal"
    },
    {
        "Muni": "Youssoufia"
    },
    {
        "Muni": "Zag"
    },
    {
        "Muni": "Zagora"
    },
    {
        "Muni": "Zaio"
    },
    {
        "Muni": "Zaouiat Cheikh"
    },
    {
        "Muni": "Zeghanghane"
    },
    {
        "Muni": "Zemamra"
    }
]
