Budget,Langue,Ville,Session,Date limite d'admission,Niveau Scolaire,Note du dernier diplôme,Test de langue,Score,Domaine d'études,Programmes,Diplômes,Type d'établissement,Nom d'etablissement,Durée,Frais d'admission,Prix annuel,Prix total,Lien,Code de programme,Exigences,Analyse,Classement des choix
,Français,Hearst,,,Baccalauréat,12,Pas de test de langue,,Sciences,Diplôme d'études supérieures en psychothérapie,DESS,Université,Université de Hearst,1 an,300,4225,8450,http://www.uhearst.ca/desp,,,,
,Français,Hearst,,,DES,,Pas de test de langue,,Gestion,Administration des affaires et en gestion,Baccalauréat,Université,Université de Hearst,4 ans,300,9030,36120,http://www.uhearst.ca/administration,,,,
,Français,Hearst,,,DES,,Pas de test de langue,,Gestion,baccalauréat ès arts spécialisé en administration des affaires,Baccalauréat,Université,Université de Hearst,3 ans,300,9030,27090,http://www.uhearst.ca/administration,,,,
,Français,Hearst,,,DES,,Pas de test de langue,,Sciences,Étude des enjeux humains et sociaux,Baccalauréat,Université,Université de Hearst,4 ans,300,9030,36120,http://www.uhearst.ca/enjeux,,,,
,Français,Hearst,,,DES,,Pas de test de langue,,Sciences,Psychologie,Baccalauréat,Université,Université de Hearst,4 ans,300,9030,36120,http://www.uhearst.ca/psychologie,,,,
,Français,Hearst,,,DES,,Pas de test de langue,,Sciences,Baccalauréat ès arts avec concentration en psychologie,Baccalauréat,Université,Université de Hearst,3 ans,300,9030,27090,http://www.uhearst.ca/psychologie,,,,
,Français,Montréal,,,Baccalauréat,12,,,Finance,D.E.S.S. en finance mathématique et computationnelle,DESS,Université,Université de Montréal,2 ANS,"109,5",9330,18660,https://admission.umontreal.ca/programmes/dess-en-finance-mathematique-et-computationnelle/,2-239-1-0,"Lettre d'intention ou de motivation, Curriculum vitae et Deux lettres de recommandation en français ou en anglais",,
,Français,Montréal,,,Baccalauréat,12,,,Informatique,D.E.S.S. en apprentissage automatique,DESS,Université,Université de Montréal,2 ANS,"109,5",9330,18660,https://admission.umontreal.ca/programmes/dess-en-apprentissage-automatique/,2-175-1-2,"3.0/4.3. être titulaire d'un B. Sc. spécialisé (informatique),",,
,Français,Longueuil,,,DES,10,Pas de test de langue,,Santé,soins infirmiers,DEC,Collège,Collège Ellis,3 ans,120,10063,60000,https://www.ellis.qc.ca/programmes/soins-infirmiers/,,,,
20000,Français,Montréal,Hiver ,lie au jour de la rencontre 2 ,Niveau Bac,10,Pas de test de langue/Possible test de français,,Informatique,Soutien informatique,DEP,Collège,Teccart,18 mois,250,10750,21500,https://www.teccart.qc.ca/soutien-informatique_dep.php,,,,
65000,Français,Montréal,,,Niveau Bac,10,Pas de test de langue,,Informatique,DEP Soutien informatique,DEP,Collège,École Supérieure Internationale de Montréal,18 mois,250,10750,21500,http://esidem.com/dep.php,,,,
,Français,Montréal,Hiver ,,Niveau Bac,10,Pas de test de langue/Possible test de français,,Informatique,Soutien informatique,DEP,Collège,Collège St-Michel,18 mois,250,10750,21500,https://www.collegest-michel.ca/dep-soutien-informatique.php,,,,
20000,Francais/Anglais,Ottawa,,,DES,,,,Sciences,B.Sc. spécialisé en informatique,Baccalauréat,Université,Université d'Ottawa (uottawa),4 ANS,110,10830,43320,https://catalogue.uottawa.ca/fr/premier-cycle/bsc-specialise-informatique/,,,,
50000,Francais/Anglais,Ottawa,,,DES,,,,Sciences,B.Sc. spécialisé en biochimie,Baccalauréat,Université,Université d'Ottawa (uottawa),4 ANS,110,10830,43320,https://catalogue.uottawa.ca/fr/premier-cycle/bsc-specialise-biochimie/,,,,
55000,Francais/Anglais,Ottawa,,,DES,,,,Sciences,B.Sc. spécialisé en biologie,Baccalauréat,Université,Université d'Ottawa (uottawa),4 ANS,110,10830,43320,https://catalogue.uottawa.ca/fr/premier-cycle/bsc-specialise-biologie/,,,,
60000,Francais/Anglais,Ottawa,,,DES,,,,Sciences,B.Sc. spécialisé en géologie,Baccalauréat,Université,Université d'Ottawa (uottawa),4 ANS,110,10830,43320,https://catalogue.uottawa.ca/fr/premier-cycle/bsc-specialise-geologie/,,,,
65000,Francais/Anglais,Ottawa,,,DES,,,,Sciences,B.Sc. spécialisé en chimie,Baccalauréat,Université,Université d'Ottawa (uottawa),4 ANS,110,10830,43320,https://catalogue.uottawa.ca/fr/premier-cycle/bsc-specialise-chimie/,,,,
70000,Francais/Anglais,Ottawa,,,DES,,,,Sciences,B.Sc. spécialisé en mathématiques,Baccalauréat,Université,Université d'Ottawa (uottawa),4 ANS,110,10830,43320,https://catalogue.uottawa.ca/fr/premier-cycle/bsc-specialise-mathematiques/,,,,
75000,Francais/Anglais,Ottawa,,,DES,,,,Sciences,B.Sc. spécialisé en statistique,Baccalauréat,Université,Université d'Ottawa (uottawa),4 ANS,110,10830,43320,https://catalogue.uottawa.ca/fr/premier-cycle/bsc-specialise-statistique/,,,,
80000,Francais/Anglais,Ottawa,,,DES,,,,Sciences,Baccalauréat ès sciences,Baccalauréat,Université,Université d'Ottawa (uottawa),4 ANS,110,10830,43320,https://catalogue.uottawa.ca/fr/premier-cycle/baccalaureat-sciences/,,,,
85000,Francais/Anglais,Ottawa,,,DES,,,,Sciences,B.A. spécialisé en communication,Baccalauréat,Université,Université d'Ottawa (uottawa),4 ANS,110,10830,43320,https://catalogue.uottawa.ca/fr/premier-cycle/ba-specialise-communication/#programrequirementstext,,,,
,Français,Ottawa,,,DES,,,,Sciences,B.Sc. spécialisé en sciences biomédicales,Baccalauréat,Université,Université d'Ottawa (uottawa),4 ANS,110,10830,43320,https://catalogue.uottawa.ca/fr/premier-cycle/bsc-specialise-sciences-biomedicales/#programrequirementstext,,,,
50000,Français,Montréal,,,Niveau Bac,10,Pas de test de langue,,Métier,DEP Dessin Industriel,DEP,Collège,Aviron,18 mois,250,10950,21950,https://avirontech.com/fr/programs/industrialdrafting.php,,,,
45000,Français,Montréal,,,Niveau Bac,10,Pas de test de langue,,Métier,Mécanique automobile,DEP,Collège,Aviron,18 mois,250,11475,22950,https://avirontech.com/fr/programs/automobile.php?gclid=CjwKCAiAhreNBhAYEiwAFGGKPGOsR2Be29XlRMEFBNt_LfymYRZIWcfuIX40SMAEbPCYjY5eXul1qhoCgF4QAvD_BwE,,,,
55000,Français,Montréal,,,Niveau Bac,10,Pas de test de langue,,Métier,DEP Électricité,DEP,Collège,Aviron,18 mois,250,11475,22950,https://avirontech.com/fr/programs/electricity.php,,,,
35000,Français,Montréal,Été,,DES,10,Pas de test de langue,,Education,Techniques d'éducation à l'enfance,DEC,Collège,Teccart,2 ans,250,11542,23084,https://www.teccart.qc.ca/education-a-l-enfance-dec.php,,,,
90000,Français,Pointe de l eglise,,,DES,,Pas de test de langue,,Administration,"Baccalauréat en administration des affaires, B.A.A. ",Baccalauréat,Université, Université Sainte-Anne ,4 ans,295,11686,46744,https://www.usainteanne.ca/baccalaureat-en-administration-des-affaires,,,,
95000,Français,Pointe de l eglise,,,DES,,Pas de test de langue,,Administration,Baccalauréat ès arts sans majeure ,Baccalauréat,Université, Université Sainte-Anne ,4 ans,295,11686,46744,https://www.usainteanne.ca/baccalaureat-en-administration-des-affaires,,,,
,Français,Montréal,,,Baccalauréat,12,,,Finance,Diplôme d'études supérieures spécialisées en finance,DESS,Université,Université du Québec à Montréal,2 ANS,135,11784,19640,https://etudier.uqam.ca/programme/dess-finance,3842,"baccalauréat spécialisé ou un diplôme jugé équivalent, obtenu avec une moyenne cumulative d'au moins 3,2 sur 4,3 dans l'une des disciplines suivantes : sciences de l'administration, sciences économiques, sciences comptables, actuariat ou mathématiques.",,
,Français,Montréal,,,Baccalauréat,12,,,fiscalité,Diplôme d'études supérieures spécialisées en fiscalité: Cheminement général,DESS,Université,Université du Québec à Montréal,2 ANS,135,11784,19640,https://etudier.uqam.ca/programme/dess-fiscalite,1894,"Le candidat doit être titulaire d'un baccalauréat obtenu avec une moyenne cumulative d'au moins 3,2 sur 4,3 (ou l'équivalent) dans une discipline ou un champ d'études lié à la comptabilité, à la finance, à l'économie, à l'actuariat ou au droit.",,
,Français,Montréal,,,Baccalauréat,12,,,Finance,DESS en finance,DESS,Université,ESG UQAM,2 ANS,135,11784,19640,https://esg.uqam.ca/programmes/dess-en-finance/,,"baccalauréat spécialisé ou un diplôme jugé équivalent, obtenu dans l'une des disciplines suivantes : sciences de l'administration, sciences économiques, sciences comptables, actuariat ou mathématiques.",,
60000,Français,Montréal,,,Niveau Bac,10,Pas de test de langue,,Métier,DEP Soudage Montage,DEP,Collège,Aviron,18 mois,250,11975,23950,https://avirontech.com/fr/programs/weldingfitting.php,,,,
70000,Français,Montréal,,,DES,10,Pas de test de langue,,Finance,DEC Techniques de services financiers et d'assurances,DEC,Collège,Collège Universel,3  ans,250,12476,37428,https://www.collegeuniversel.ca/programmes/dec-techniques-de-services-financiers-et-assurances/,,,,
,Français,Montréal,,,Baccalauréat,12,,,Gestion,Maîtrise en administration des affaires (MBA),Maîtrise,Université,Université du Québec à Montréal,2 ANS,135,12512,31280,https://etudier.uqam.ca/programme?code=1892,1892,"le candidat doit être titulaire d'un diplôme de baccalauréat ou l'équivalent obtenu avec une moyenne cumulative d'au moins 3,2 sur 4,3 ou l'équivalent dans une discipline autre que l'administration.",,
,Français,Montréal,,,Baccalauréat,12,,,Finance,"Maîtrise ès sciences, finance appliquée",Maîtrise,Université,Université du Québec à Montréal,2 ANS,135,12512,31280,https://etudier.uqam.ca/programme/maitrise-finance-appliquee,3580,"baccalauréat spécialisé ou un diplôme jugé équivalent, obtenu avec une moyenne cumulative d'au moins 3,2 sur 4,3 dans l'une des disciplines suivantes : sciences de l'administration, sciences économiques, sciences comptables, actuariat ou mathématiques.",,
,Français,Montréal,,,DES,10,TEST ,,Informatique,DEC Techniques de l'informatique ,DEC,CEGEP,CÉGEP du vieux Montréal,3 ANS,,12744,38232,https://www.cvm.qc.ca/programme/techniques-informatique/,,"TEST : Le test, d'une durée de 3 heures, évalue la compréhension orale, la compréhension écrite, la grammaire et l'expression écrite :
Section I : Compréhension orale (10 questions à choix multiples)
Section II : Compréhension écrite (10 questions à choix multiples)
Section III : Grammaire (20 questions à choix multiples)
Section IV : Dictée
Section V : Rédaction de 200 à 250 mots",,
,Français,Montréal,,,DES,10,,,Mode,DEC en Design de mode - Chaussures et accessoires,DEC,Collège,Collège Lasalle,3 ans ,275,13000,39000,https://www.collegelasalle.com/ecole-de-mode-arts-design/dec-design-mode-chaussures-et-accessoires,,Avoir obtenu un diplôme d'études secondaires (DES) ou Avoir obtenu un diplôme d'études professionnelles (DEP),,
,Français,Montréal,,,DES,10,,,Commerce,DEC en Gestion de commerces,DEC,Collège,Collège Lasalle,3 ans ,275,13000,39000,https://www.collegelasalle.com/ecole-de-gestion-et-technologies/dec-gestion-commerces,,,,
,Français,Montréal,,,DES,10,,,Comptabilité,DEC en Techniques de comptabilité et de gestion,DEC,Collège,Collège Lasalle,3 ans ,275,13000,39000,https://www.collegelasalle.com/ecole-de-gestion-et-technologies/dec-techniques-comptabilite-de-gestion,,,,
,Français,Montréal,,,DES,10,,,Gestion,DEC en Gestion de commerces - Gestion des industries créatives,DEC,Collège,Collège Lasalle,3 ans ,275,13000,39000,https://www.collegelasalle.com/ecole-de-mode-arts-design/dec-gestion-industries-creatives,,,,
,Français,Montréal,,,DES,10,,,Informatique,DEC en Techniques de l'informatique - Programmation en jeux vidéo,DEC,Collège,Collège Lasalle,3 ans ,275,13000,39000,https://www.collegelasalle.com/vfx-jeux-video/dec-techniques-informatique-programmation-jeux-video,,,,
,Français,Montréal,,,DES,10,,,Gestion,DEC en Techniques de gestion hôtelière,DEC,Collège,Collège Lasalle,3 ans ,275,13000,39000,https://www.collegelasalle.com/ecole-hotellerie-et-tourisme/dec-techniques-gestion-hoteliere,,,,
,Français,Montréal,,,DES,10,,,Informatique,DEC en Techniques de l'informatique - Programmation (profil 420.BP,DEC,Collège,Collège Lasalle,3 ans ,275,13000,39000,https://www.collegelasalle.com/ecole-de-gestion-et-technologies/dec-techniques-information-informatique-de-gestion,,,,
,Français,Montréal,,,DES,10,,,Informatique,DEC en Techniques de l'informatique - Gestion de réseaux et sécurité (profil 420.BR),DEC,Collège,Collège Lasalle,3 ans ,275,13000,39000,https://www.collegelasalle.com/ecole-de-gestion-et-technologies/dec-techniques-informatique-gestion-reseaux,,,,
,Français,Montréal,,,DES,10,,,Sciences,DEC en Sciences humaines - Civilisation et citoyenneté (profil 300.A1),DEC,Collège,Collège Lasalle,3 ans ,275,13000,39000,https://www.collegelasalle.com/sciences-et-techniques-humaines/dec-sciences-humaines-civilisation-citoyennete,,,,
,Français,Montréal,,,DES,10,,,Sciences,DEC en Sciences humaines - Gestion internationale (profil 300.A2),DEC,Collège,Collège Lasalle,3 ans ,275,13000,39000,https://www.collegelasalle.com/sciences-et-techniques-humaines/dec-sciences-humaines-gestion-internationale,,,,
,Français,Montréal,,,DES,10,,,Sciences,DEC en Sciences humaines - Individu et société (profil 300.A3),DEC,Collège,Collège Lasalle,3 ans ,275,13000,39000,https://www.collegelasalle.com/sciences-et-techniques-humaines/dec-sciences-humaines-individu-societe,,,,
,Français,Montréal,,,DES,10,,,Education,DEC en Techniques d'éducation à l'enfance,DEC,Collège,Collège Lasalle,3 ans ,275,13000,39000,https://www.collegelasalle.com/sciences-et-techniques-humaines/dec-techniques-education-enfance,,,,
,Français,Montréal,,,DES,10,,,Education,DEC en Techniques d'éducation spécialisée,DEC,Collège,Collège Lasalle,3 ans ,275,13000,39000,https://www.collegelasalle.com/sciences-et-techniques-humaines/dec-techniques-education-specialisee,,,,
,Français,Montréal,,,DES,10,,,Gestion,DEC en Gestion d'un établissement de restauration,DEC,Collège,Collège Lasalle,3 ans ,275,13000,39000,https://www.collegelasalle.com/ecole-hotellerie-et-tourisme/dec-techniques-tourisme-option-developpement-promotion-produits-voyage,,,,
,Français,Montréal,,,DES,10,,,Gestion,DEC en Techniques de tourisme - Spécialisation en développement et promotion de produits du voyage (option 414.AC),DEC,Collège,Collège Lasalle,3 ans ,275,13000,39000,https://www.collegelasalle.com/ecole-hotellerie-et-tourisme/dec-techniques-tourisme-option-developpement-promotion-produits-voyage,,,,
,Français,Moncton,,,Baccalauréat,12,Pas de test de langue,,Gestion,Maîtrise en gestion des services de santé,Maîtrise,Université,Université de Moncton,2 ans ,160,"13133,6",26267,https://www.umoncton.ca/repertoire?programme_select=200,,3 lettres de recommandation,,
,Français,Moncton,,,Baccalauréat,12,,,Gestion,Maîtrise ès sciences (gestion),Maîtrise,Université,Université de Moncton,2 ans ,160,"13133,6",26267,https://www.umoncton.ca/repertoire?programme_select=196,,3.0/4.3. 3 lettres de recommandation,,
,Français,Moncton,,,Baccalauréat,12,,,Informatique,Maîtrise ès sciences (informatique),Maîtrise,Université,Université de Moncton,2 ans ,160,"13133,6",26267,https://www.umoncton.ca/repertoire?programme_select=222,,3.0/4.3. 3 lettres de recommandation,,
,Français,Drummondville et Trois-Rivières,,,DES,10,,,Droit,Techniques juridiques,DEC,Collège ,Collège Ellis,3 ANS ,200,13624,40872,https://www.ellis.qc.ca/programmes/techniques-juridiques/,,,,
,Français,Trois-Rivières,,,DES,10,,,administration,Techniques de bureautique,DEC,Collège ,Collège Ellis,3 ANS ,200,13624,40872,https://www.ellis.qc.ca/programmes/techniques-de-bureautique/,,,,
,Français,Drummondville et Trois-Rivières,,,DES,10,,,Gestion,Techniques de gestion de commerces,DEC,Collège ,Collège Ellis,3 ANS,200,13624,40872,https://www.ellis.qc.ca/programmes/gestion-de-commerces/,,,,
,Français,Longueuil,,,DES,10,,,Education,Techniques d'éducation spécialisée,DEC,Collège ,Collège Ellis,3 ANS ,200,13634,40872,https://www.ellis.qc.ca/programmes/techniques-d-education-specialisee/,,,,
,Français,Moncton,,,Baccalauréat,12,Pas de test de langue,,Sciences,Maîtrise ès sciences (biochimie),Maîtrise,Université,Université de Moncton,2 ans,160,13985,22623,https://www.umoncton.ca/repertoire,,,,
,Français,Moncton,,,Baccalauréat,12,Pas de test de langue,,Sciences,Maîtrise ès sciences (biologie),Maîtrise,Université,Université de Moncton,2 ans,160,13985,22623,https://www.umoncton.ca/repertoire,,,,
,Français,Montréal,,,Baccalauréat,12,Pas de test de langue,,Gestion,Maîtrise en administration des services de santé,Maîtrise,Université,Université de Montréal  (UDEM),2 ans ,"109,5",13995,27990,https://admission.umontreal.ca/programmes/maitrise-en-administration-des-services-de-sante/,,3 lettres de recommandation,,
,Français,Rimouski,,,Baccalauréat,12,Pas de test de langue,,Gestion,Maîtrise en gestion des ressources maritimes,Maîtrise,Université,Université du Québec à Rimouski (UQAR),2 ans ,"55,32","14352,5",28705,https://www.uqar.ca/etudes/etudier-a-l-uqar/programmes-d-etudes/1743,,3 Rapports  Confidentiels à remplir par des anciens profs,,
,Français,Rimouski,,,Baccalauréat,12,Pas de test de langue,,Gestion,Maîtrise en gestion de projet,Maîtrise,Université,Université du Québec à Rimouski (UQAR),2 ans ,"55,32","14352,5",28705,https://www.uqar.ca/etudes/etudier-a-l-uqar/programmes-d-etudes/3249,,3 Rapports  Confidentiels a remplir par des anciens profs,,
75000,Français,Timmins,septembre,,DES,10,Pas de test de langue,,Métier,Techniques des véhicules à moteur - camions et autobus ,Diplôme,Collège,Collège Boréal,2 ans ,350,14500,29000,https://www.collegeboreal.ca/programmes/professions-et-metiers/caau-techniques-des-vehicules-a-moteur-camions-et-autobus,,,,
80000,Français,Sudbury,Sudbury,,DES,10,Pas de test de langue,,Génie,Techniques du génie électrique,Diplôme,Collège,Collège Boréal,2 ans ,350,14500,29000,https://www.collegeboreal.ca/programmes/professions-et-metiers/eltq-techniques-du-genie-electrique,,,,
85000,Français,,,,DES,10,Pas de test de langue,,Administration,Techniques en administration des affaires,Diplôme,Collège,Collège Boréal,2 ans ,350,14500,29000,https://www.collegeboreal.ca/programmes/commerce-finances-administration/aafq-techniques-en-administration-des-affaires,,,,
,Français,Longueuil,,,DES,10,,,Education,Éducation spécialisée (AEC),AEC,Collège ,Collège Ellis,2 ANS,200,14544,29088,https://www.ellis.qc.ca/programmes/aec-education-specialisee/,,,,
,Français,Moncton,,,DES,,Pas de test de langue,,Informatique,Baccalauréat en informatique appliquée,Baccalauréat,Université,Université de Moncton,4 ans,160,14614,58456,https://www.umoncton.ca/repertoire,,,,
,Français,Moncton,,,DES,,Pas de test de langue,,Administration,Baccalauréat en administration des affaires multidisciplinaire,Baccalauréat,Université,Université de Moncton,4 ans,160,14614,58456,https://www.umoncton.ca/repertoire,,,,
,Français,Moncton,,,DES,,Pas de test de langue,,Sciences,Baccalauréat ès sciences (majeure en biologie),Baccalauréat,Université,Université de Moncton,4 ans,160,14614,58456,https://www.umoncton.ca/repertoire,,,,
,Français,Moncton,,,DES,,Pas de test de langue,,Sciences,Baccalauréat ès sciences (spécialisation en biochimie et biologie moléculaire),Baccalauréat,Université,Université de Moncton,4 ans,160,14614,58456,https://www.umoncton.ca/repertoire,,,,
,Français,Moncton,,,DES,,Pas de test de langue,,Sciences,Baccalauréat ès sciences (spécialisation en biologie),Baccalauréat,Université,Université de Moncton,4 ans,160,14614,58456,https://www.umoncton.ca/repertoire,,,,
,Français,Moncton,,,DES,,Pas de test de langue,,Sciences,Baccalauréat ès sciences (spécialisation en biologie) - régime coopératif,Baccalauréat,Université,Université de Moncton,4 ans,160,14614,58456,https://www.umoncton.ca/repertoire,,,,
,Français,Montréal,,,Baccalauréat,12,,,Comptabilité,"Maîtrise en comptabilité, contrôle, audit: Profil avec mémoire",Maîtrise,Université,Université du Québec à Montréal,2 ANS,135,14632,36580,https://etudier.uqam.ca/programme/maitrise-comptabilite-controle-audit,3026,"Le candidat doit être titulaire d'un baccalauréat obtenu avec une moyenne cumulative d'au moins 3,2 sur 4,3 (ou l'équivalent) dans une discipline ou un champ d'études lié à la comptabilité, à la finance, à l'économie, à l'actuariat ou au droit.",,
,Français,Montréal,,,Baccalauréat,12,,,Comptabilité,"Maîtrise en comptabilité, contrôle, audit: Profil avec essai",Maîtrise,Université,Université du Québec à Montréal,2 ANS,135,14632,36580,https://etudier.uqam.ca/programme/maitrise-comptabilite-controle-audit,3027,"Le candidat doit être titulaire d'un baccalauréat obtenu avec une moyenne cumulative d'au moins 3,2 sur 4,3 (ou l'équivalent) dans une discipline ou un champ d'études lié à la comptabilité, à la finance, à l'économie, à l'actuariat ou au droit.",,
,Français,Montréal,,,Baccalauréat,12,,,Comptabilité,"Maîtrise en comptabilité, contrôle, audit: Profil avec stage",Maîtrise,Université,Université du Québec à Montréal,2 ANS,135,14632,36580,https://etudier.uqam.ca/programme/maitrise-comptabilite-controle-audit,1628,"Le candidat doit être titulaire d'un baccalauréat obtenu dans une discipline ou un champ d'études lié à la comptabilité, à la finance, à l'économie, à l'actuariat ou au droit.",,
,Français,Montréal,,,Baccalauréat,12,,,Finance,Maîtrise en finance appliquée (MFA),Maîtrise,Université,ESG UQAM,2 ANS,135,14632,36580,https://esg.uqam.ca/programmes/maitrise-en-finance-appliquee-mfa/,,,,
,Français,Montréal,,,Baccalauréat,12,,,Comptabilité,"Maîtrise en comptabilité, contrôle, audit",Maîtrise,Université,ESG UQAM,2 ANS,135,14632,36580,https://esg.uqam.ca/programmes/maitrise-en-comptabilite-controle-audit/,,"Le candidat doit être titulaire d'un baccalauréat obtenu dans une discipline ou un champ d'études lié à la comptabilité, à la finance, à l'économie, à l'actuariat ou au droit.",,
,Français,Montréal,,,Baccalauréat,12,,,Informatique,Maîtrise en informatique pour l'intelligence et la gestion des données,Maîtrise,Université,Université du Québec à Montréal,2 ANS,135,14632,36580,https://etudier.uqam.ca/programme?code=1919,1919,"un baccalauréat en informatique, en génie logiciel ou l'équivalent,",,
,Français,Chicoutimi,,,Baccalauréat,12,Pas de test de langue,,Gestion,Maîtrise en gestion des organisations,Maîtrise,Université,Université du Québec à Chicoutimi (UQAC),2 ans ,30,14677,29354,https://www.uqac.ca/programme/3755-maitrise-en-gestion-des-organisations/,,3 lettres de recommandation,,
,Français,"SU, TO",,,DES,,,,,Adjoint juridique,,Collège,Collège Boréal,2 ANS,350,14806,29612,https://www.collegeboreal.ca/programmes/incendie-loi-securite/ajur-adjoint-juridique,,Diplôme d'études secondaires,,
,Français,"SU, TI",septembre,,DES,,,,métier,Mécanique de la machinerie lourde,,Collège,Collège Boréal,1 ANS,350,14806,14806,https://www.collegeboreal.ca/programmes/professions-et-metiers/meml-mecanique-de-la-machinerie-lourde,,Diplôme d'études secondaires,,
,Français,Sudbury,,,DES,,,,Sciences,Soins paramédicaux,,Collège,Collège Boréal,2 ANS,350,14806,29806,https://www.collegeboreal.ca/programmes/sante-alimentation-medecine/ambp-soins-paramedicaux,,"Diplôme d'études secondaires, Réussite avec un minimum de 70% de l'Évaluation de la condition physique et des habitudes de vie (CPHV)",,
,Français,Sudbury,septembre,,DES,,,,Architecture,Techniques de l‘ARCHITECTURE,,Collège,Collège Boréal,2 ANS,350,14806,29806,https://www.collegeboreal.ca/programmes/genie-et-technologie/artq-techniques-d-architecture,,Diplôme d'études secondaires,,
,Français,Sudbury,septembre,,DES,,,,Mécanique,Techniques de soudage et de fabrication,,Collège,Collège Boréal,2 ANS,350,14806,29612,https://www.collegeboreal.ca/programmes/professions-et-metiers/souq-techniques-de-soudage-et-de-fabrication,,Diplôme d'études secondaires,,
,Français,"SU, HE, KA, NP, TI, TO, WI",septembre,,DES,,,,Sociologie,Techniques de travail social,,Collège,Collège Boréal,2 ANS,350,14806,29612,https://www.collegeboreal.ca/programmes/education-et-services-communautaires-et-sociaux/tsoc-techniques-de-travail-social,,Diplôme d'études secondaires,,
,Français,Sudbury,,,DES,,,,Education,Techniques d'éducation spécialisée,,Collège,Collège Boréal,3 ANS,350,14806,44418,https://www.collegeboreal.ca/programmes/education-et-services-communautaires-et-sociaux/tesq-techniques-d-education-specialisee,,"Diplôme d'études secondaires, certificat de secourisme général, un extrait du casier judiciaire, un test à la tuberculine en deux étapes et le vaccin contre l'hépatite B, ",,
,Français,Sudbury,,,DES,,,,Informatique,Techniques des systèmes informatiques,,Collège,Collège Boréal,2 ANS,350,14806,29612,https://www.collegeboreal.ca/programmes/informatique-et-telecommunications/tsiq-techniques-des-systemes-informatiques,,Diplôme d'études secondaires,,
,Français,Sudbury,septembre,,DES,,,,génie,Techniques du génie de construction - civil et minier,DEC,Collège,Collège Boréal,2 ANS,350,14806,29612,https://www.collegeboreal.ca/programmes/genie-et-technologie/civq-techniques-du-genie-de-construction-civil-et-minier,,Diplôme d'études secondaires,,
,Français,Sudbury,septembre,,DES,,,,génie,TECHNIQUES DU GÉNIE MÉCANIQUE - MÉCANICIEN-MONTEUR INDUSTRIEL,DEC,Collège,Collège Boréal,2 ANS,350,14806,29612,https://www.collegeboreal.ca/programmes/professions-et-metiers/minq-techniques-du-genie-mecanique-mecanicien-monteur-industriel-(millwright),,Diplôme d'études secondaires,,
,Français,"SU, HE, KA, NP, TI, TO, WI",septembre,,DES,,,,Gestion,Techniques en administration de bureau,DEC,Collège,Collège Boréal,2 ANS,350,14806,29712,https://www.collegeboreal.ca/programmes/commerce-finances-administration/dbur-techniques-en-administration-de-bureau,,Certificat de Pratiques en administration de bureau,,
,Français,Sudbury,septembre/janvier,,DES,,,,Sciences,Techniques en environnement forestier et faunique,DEC,Collège,Collège Boréal,2 ANS,350,14806,29612,https://www.collegeboreal.ca/programmes/energie-environnement-ressources-naturelles/fpfq-techniques-en-environnement-forestier-et-faunique,,Diplôme d'études secondaires,,
,Français,Sudbury,septembre,,DES,,,,métiers,Techniques en prospection et exploration minière,DEC,Collège,Collège Boréal,2 ANS,350,14806,29612,https://www.collegeboreal.ca/programmes/professions-et-metiers/tpem-techniques-en-prospection-et-exploration-miniere,,Diplôme d'études secondaires,,
,Français,"SU, TI",septembre,,,,,,métiers,Techniques en réparation de machinerie lourde,DEC,Collège,Collège Boréal,2 ANS,350,14806,29612,https://www.collegeboreal.ca/programmes/professions-et-metiers/mmlq-techniques-en-reparation-de-machinerie-lourde,,Certificat en Mécanique de la machinerie lourde (2 étapes) ou l'équivalent,,
,Français,Sudbury,septembre,,,,,,Sciences,Technologie de gestion de la pêche et de la faune,DEC,Collège,Collège Boréal,3 ANS,350,14806,44418,https://www.collegeboreal.ca/programmes/energie-environnement-ressources-naturelles/fpfg-technologie-de-gestion-de-la-peche-et-de-la-faune,,Diplôme en Techniques en environnement forestier et faunique (4 étapes) ou l’équivalent,,
,Français,Sudbury,septembre,,,,,,génie,Technologie de l'architecture,DEC,Collège,Collège Boréal,3 ANS,350,14806,44418,https://www.collegeboreal.ca/programmes/genie-et-technologie/civg-technologie-du-genie-de-construction-civil-et-minier,,"Diplôme de Techniques du génie de construction – civil et minier (4 étapes), ou l’équivalent",,
,Français,Sudbury,septembre,,,,,,génie,Technologie en environnement forestier,DEC,Collège,Collège Boréal,3 ANS,350,14806,44418,https://www.collegeboreal.ca/programmes/energie-environnement-ressources-naturelles/forg-technologie-en-environnement-forestier,,Diplôme en Techniques en environnement forestier et faunique (4 étapes) ou l’équivalent,,
,Français,"SU, TO",septembre,,DES,,,,Finance,Administration des affaires – COMPTABILITÉ,DEC,Collège,Collège Boréal,3 ANS,350,14806,44418,https://www.collegeboreal.ca/programmes/commerce-finances-administration/aafc-administration-des-affaires-comptabilite,,Diplôme d'études secondaires,,
,Français,"SU, HE, KA, NP, TI, TO, WI",septembre,,DES,,,,Education,Éducation en SERVICES À L’ENFANCE,DEC,Collège,Collège Boréal,2 ANS,350,14806,29612,https://www.collegeboreal.ca/programmes/education-et-services-communautaires-et-sociaux/geen-education-en-services-a-lenfance,,Diplôme d'études secondaires,,
,Français,"SU, TO",septembre,,DES,,,,Education,Techniques d’ÉDUCATION SPÉCIALISÉE,DEC,Collège,Collège Boréal,3 ANS,350,14806,44418,"https://www.collegeboreal.ca/programmes/education-et-services-communautaires-et-sociaux/tesq-techniques-deducation-specialisee#:~:text=Ce%20programme%20vise%20%C3%A0%20former,une%20meilleure%20compr%C3%A9hension%20entre%20les",,Diplôme d'études secondaires,,
,Français,"SU, TO",septembre,,DES,,,,Informatique,Soutien technique en INFORMATIQUE,DEC,Collège,Collège Boréal,18 MOIS,350,14806,22209,https://www.collegeboreal.ca/programmes/informatique-et-telecommunications/ginf-soutien-technique-en-informatique,,Diplôme d'études secondaires,,
,Français,Sudbury,septembre,,DES,,,,Informatique,Technologie du GÉNIE INFORMATIQUE,DEC,Collège,Collège Boréal,3 ANS,350,14806,44418,https://www.collegeboreal.ca/programmes-cours/etudes-a-temps-plein/technologie-du-genie-informatique,,Diplôme d'études secondaires,,
,Français,"SU, WI",septembre,,DES,,,,,Techniques des SERVICES POLICIERS,DEC,Collège,Collège Boréal,2 ANS,350,14806,29612,https://www.collegeboreal.ca/programmes/incendie-loi-securite/tspq-techniques-des-services-policiers,,Diplôme d'études secondaires,,
,Français,Sudbury,septembre,,DES,,,,Santé,Hygiène DENTAIRE,DEC,Collège,Collège Boréal,3 ANS,350,14806,44418,https://www.collegeboreal.ca/programmes/sante-alimentation-medecine/hydg-hygiene-dentaire,,Diplôme d'études secondaires,,
,Français,Sudbury,septembre,,DES,,,,Santé,Assistant de l’ERGOTHÉRAPEUTE et assistant du PHYSIOTHÉRAPEUTE,DEC,Collège,Collège Boréal,30 MOIS,350,14806,22209,https://www.collegeboreal.ca/programmes/sante-alimentation-medecine/erph-assistant-de-l-ergotherapeute-et-assistant-du-physiotherapeute,,Diplôme d'études secondaires,,
,Français,Sudbury,septembre,,DES,,,,Santé,MASSOTHÉRAPIE,DEC,Collège,Collège Boréal,3 ANS,350,14806,44418,https://www.collegeboreal.ca/programmes/sante-alimentation-medecine/mass-massotherapie,,Diplôme d'études secondaires,,
,Français,Sudbury,septembre,,DES,,,,Santé,SOINS PARAMÉDICAUX,DEC,Collège,Collège Boréal,2 ANS,350,14806,29612,https://www.collegeboreal.ca/programmes/sante-alimentation-medecine/ambp-soins-paramedicaux,,Réussite avec un minimum de 70% de l'Évaluation de la condition physique et des habitudes de vie,,
,Français,"Sudbury, Ottawa",septembre,,DES,,,,agriculture,TECHNIQUES DE SOINS VÉTÉRINAIRES,DEC,Collège,Collège Boréal,2 ANS,350,14806,29612,https://www.collegeboreal.ca/programmes/agriculture-et-domaines-connexes/vetq-techniques-de-soins-veterinaires,,Moyenne générale d’au moins 60% dans tous les cours préalables et d’au moins 70% dans le cours de mathématiques.,,
,Français,"Sudbury, Ottawa",septembre/janvier,,DES,,,,agriculture,Techniques AGRICOLES,DEC,Collège,Collège Boréal,2 ANS,350,14806,29612,https://www.collegeboreal.ca/programmes/agriculture-et-domaines-connexes/agrq-techniques-agricoles,,Diplôme d'études secondaires,,
,Français,Sudbury,septembre,,DES,,,,génie,Techniques du GÉNIE DE CONSTRUCTION,DEC,Collège,Collège Boréal,2 ANS,350,14806,29612,https://www.collegeboreal.ca/programmes/genie-et-technologie/coci-techniques-du-genie-de-la-construction-civil,,Diplôme d'études secondaires,,
,Français,Sudbury,septembre,,DES,,,,génie,Techniques du génie de construction - civil et minier,DEC,Collège,Collège Boréal,3 ANS,350,14806,44418,https://www.collegeboreal.ca/programmes/genie-et-technologie/civq-techniques-du-genie-de-construction-civil-et-minier,,Diplôme d'études secondaires,,
,Français,Sudbury,septembre,,DES,,,,métiers,Techniques de PROSPECTION ET D’EXPLORATION MINIÈRE,DEC,Collège,Collège Boréal,2 ANS,350,14806,29612,https://www.collegeboreal.ca/programmes/professions-et-metiers/tpem-techniques-en-prospection-et-exploration-miniere,,Diplôme d'études secondaires,,
,Français,Sudbury,,,DES,,,,Gestion,Administration des affaires - comptabilité,,Collège,Collège Boréal,3 ANS,350,14876,44418,https://www.collegeboreal.ca/programmes/commerce-finances-administration/aafc-administration-des-affaires-comptabilite,,Diplôme d'études secondaires,,
,Français,"SU, HE, KA, NP, TI, TO, WI",septembre/janvier,,DES,,,,Gestion,Techniques en administration des affaires,DEC,Collège,Collège Boréal,2 ANS,350,14876,29682,https://www.collegeboreal.ca/programmes/commerce-finances-administration/aafq-techniques-en-administration-des-affaires,,Diplôme d'études secondaires,,
,Français,Sudbury,,,DES,,,,Santé,Technologie en radiation médicale,DEC,Collège,Collège Boréal,3 ANS,350,14881,44493,https://www.collegeboreal.ca/programmes/sante-alimentation-medecine/trmg-technologie-en-radiation-medicale,,"Diplôme d'études secondaires, une note de passage de 70% est exigée pour tous les cours préalables: Francais, Anglais, Mathématiques, Biologie et Physique",,
,Français,Sudbury,,,DES,,,,Santé,Techniques de soins vétérinaires,,Collège,Collège Boréal,2 ANS,350,14906,37586,https://www.collegeboreal.ca/programmes/agriculture-et-domaines-connexes/vetq-techniques-de-soins-veterinaires,,"Diplôme d'études secondaires, Une note minimale de 60% dans chacun des cours obligatoires suivants : français, mathématiques, biologie",,
,Français,Sudbury,septembre,,DES,,,,métiers,Techniques du génie électrique,DEC,Collège,Collège Boréal,2 ANS,350,15356,30162,https://www.collegeboreal.ca/programmes/professions-et-metiers/eltq-techniques-du-genie-electrique,,"Diplôme d'études secondaires,  Certificat en Pratique de l’électricité (2 étapes) ou l'équivalent",,
,Français,Sudbury,septembre,,,,,,génie,Technologie du génie électrique,DEC,Collège,Collège Boréal,3 ANS,350,15356,44968,https://www.collegeboreal.ca/programmes/professions-et-metiers/eltg-technologie-du-genie-electrique,,Diplôme en Techniques du génie électrique (4 étapes) ou l’équivalent,,
,Français,Sudbury,septembre,,,,,,génie,Technologie du génie électronique - instrumentation,DEC,Collège,Collège Boréal,3 ANS,350,15356,44968,https://www.collegeboreal.ca/programmes/professions-et-metiers/elng-technologie-du-genie-electronique-instrumentation,,Diplôme en Techniques du génie électrique (4 étapes) ou l’équivalent,,
,Français,Montréal,,,DES,,TFI,780/990,Sciences,"DEC – Arts, lettres et communication",DEC,Collège,Brébeuf,2 ans,250,15469,30938,https://www.brebeuf.qc.ca/collegial/dec-alc-arts-lettres-communication/,,TFI (Test de français international) et le réussir avec un résultat minimal de 780/990 ou le TCF avec un résultat minimal de 499/699. Pour connaître l’endroit offrant le TFI,,
,Français,Montréal,,,DES,,TFI,780/990,Sciences,DEC – Sciences Humaines,DEC,Collège,Brébeuf,2 ans,250,15469,30938,https://www.brebeuf.qc.ca/collegial/dec-sciences-humaines/,,TFI (Test de français international) et le réussir avec un résultat minimal de 780/990 ou le TCF avec un résultat minimal de 499/699. Pour connaître l’endroit offrant le TFI,,
,Français,Montréal,,,DES,,TFI,780/990,Sciences,DEC – Sciences de la nature,DEC,Collège,Brébeuf,2 ans,250,15469,30938,https://www.brebeuf.qc.ca/collegial/dec-sciences-de-la-nature/,,TFI (Test de français international) et le réussir avec un résultat minimal de 780/990 ou le TCF avec un résultat minimal de 499/699. Pour connaître l’endroit offrant le TFI,,
,Français,Montréal,,,DES,,TFI,780/990,Sciences,"DEC – Sciences, lettres et arts",DEC,Collège,Brébeuf,2 ans,250,15469,30938,https://www.brebeuf.qc.ca/collegial/dec-sciences-lettres-et-arts/,,TFI (Test de français international) et le réussir avec un résultat minimal de 780/990 ou le TCF avec un résultat minimal de 499/699. Pour connaître l’endroit offrant le TFI,,
,Français,"SU, HE, KA, NP, TI, TO, WI",,,DES,,,,Sciences,Soins infirmiers auxiliaires,,Collège,Collège Boréal,2 ANS,350,15532,31014,https://www.collegeboreal.ca/programmes/sante-alimentation-medecine/siax-soins-infirmiers-auxiliaires,,"Diplôme d'études secondaires, Une note minimale de 65% dans chacun des cours obligatoires suivants : français, mathématiques, biologie",,
,Français,Trois-Rivières,hiver,1er octobre,Baccalauréat,12,,,Sciences,Maîtrise en biologie cellulaire et moléculaire,Maîtrise,Université,Université du Québec à Trois-Rivières (UQTR),2 ans,"47,96",15963,23945,"https://oraprdnt.uqtr.uquebec.ca/pls/apex/f?p=106:10::::10:P10_CD_PGM,P10_RECH_CRITERE,P10_RECH_VALEUR,P10_RECH_DESC:1662,P2_CD_NIVEAU,MATR,%5CMa%C3%AEtrises%5C#txt_prog",1662,,,
,Français,Trois-Rivières,,,Baccalauréat,12,,,Sciences,Maîtrise en mathématiques et informatique appliquées (avec mémoire),Maîtrise,Université,Université du Québec à Trois-Rivières (UQTR),2 ans,"47,96",15963,23945,"https://oraprdnt.uqtr.uquebec.ca/pls/apex/f?p=106:10::::10:P10_CD_PGM,P10_RECH_CRITERE,P10_RECH_VALEUR,P10_RECH_DESC:3799,P2_CD_NIVEAU,MATR,%5CMa%C3%AEtrises%5C",,,,
,Français,Trois-Rivières,,,Baccalauréat,12,,,Gestion,Maîtrise en administration des affaires (MBA),Maîtrise,Université,Université du Québec à Trois-Rivières (UQTR),2 ans,"47,96",15963,23945,"https://oraprdnt.uqtr.uquebec.ca/pls/apex/f?p=106:10::::10:P10_CD_PGM,P10_RECH_CRITERE,P10_RECH_VALEUR,P10_RECH_DESC:3457,P2_CD_NIVEAU,MATR,%5CMa%C3%AEtrises%5C",,L'étudiant doit posséder une expérience pertinente qui doit être récente et d'une durée minimale de trois années dans une organisation (entreprise ou autres).,,
,Français,Trois-Rivières,hiver,1er octobre,Baccalauréat,12,,,Sciences,Maîtrise en chimie (avec mémoire),Maîtrise,Université,Université du Québec à Trois-Rivières (UQTR),2 ans,"47,96",15972,23958,"https://oraprdnt.uqtr.uquebec.ca/pls/apex/f?p=106:10::::10:P10_CD_PGM,P10_RECH_CRITERE,P10_RECH_VALEUR,P10_RECH_DESC:3411,P2_CD_NIVEAU,MATR,%5CMa%C3%AEtrises%5C#txt_prog",3411,,,
,Français,Montréal,,,Baccalauréat,12,Pas de test de langue,,Gestion,Maîtrise ès sciences de la gestion,Maîtrise,Université,Université du Québec à Montréal (UQAM),2 ans,135,16000,32000,https://etudier.uqam.ca/programme?code=1761,,"Plusieur spécialité, il faudra allez au lien pour faire le choix du programme et noter le code relié",,
25000,Francais/Anglais,Ottawa,,,DES,,,,Génie,B.Sc.A. en génie chimique,Baccalauréat,Université,Université d'Ottawa (uottawa),4 ANS,110,16408,65632,https://catalogue.uottawa.ca/fr/premier-cycle/bsca-genie-chimique/,,,,
30000,Francais/Anglais,Ottawa,,,DES,,,,Génie,B.Sc.A. en génie civil,Baccalauréat,Université,Université d'Ottawa (uottawa),4 ANS,110,16408,65632,https://catalogue.uottawa.ca/fr/premier-cycle/bsca-genie-civil/,,,,
35000,Francais/Anglais,Ottawa,,,DES,,,,Génie,B.Sc.A. en génie électrique,Baccalauréat,Université,Université d'Ottawa (uottawa),4 ANS,110,16408,65632,https://catalogue.uottawa.ca/fr/premier-cycle/bsca-genie-electrique/,,,,
40000,Francais/Anglais,Ottawa,,,DES,,,,Génie,B.Sc.A. en génie informatique,Baccalauréat,Université,Université d'Ottawa (uottawa),4 ANS,110,16408,65632,https://catalogue.uottawa.ca/fr/premier-cycle/bsca-genie-informatique/#text,,,,
45000,Francais/Anglais,Ottawa,,,DES,,,,Génie,B.Sc.A. en génie mécanique,Baccalauréat,Université,Université d'Ottawa (uottawa),4 ANS,110,16408,65632,https://catalogue.uottawa.ca/fr/premier-cycle/bsca-genie-mecanique/,,,,
,Français,Montréal,,,DES,,TFI,605/990,Sciences,Baccalauréat en sciences de la communication,Baccalauréat ,Université,Université de Montréal,3 ANS,"109,5",16750,50250,https://admission.umontreal.ca/programmes/baccalaureat-en-sciences-de-la-communication/,1-225-1-0,UNE ANNÉE D’ÉTUDES UNIVERSITAIRES RÉUSSIE OU ou l' année préparatoire UdeM,,
,Français,Ottawa,,,Baccalauréat,12,Pas de test de langue,,Gestion,Maîtrise ès sciences Gestion,Maîtrise,Université,Université d'Ottawa (uottawa),2 ANS,110,16848,25272,https://catalogue.uottawa.ca/fr/etudes-sup/maitrise-sciences-gestion/#Admissiontext,,,,
,Français,Québec,hiver,15 septembre,Baccalauréat,12,,,Sciences,Maîtrise en microbiologie - avec mémoire,Maîtrise,Université,Université Laval,2 ans,"89,5",16860,25290,https://www.fsg.ulaval.ca/etudes/programmes-detudes/maitrise-en-microbiologie-avec-memoire/,,,,
25000,Français,Montréal,Automne,si date d'admission est inférieur à la date de rencontre 2 on affiche pas les programme ,DES,10,Pas de test de langue/Possible test en anglais,,Informatique,Informatique de gestion,DEC,Collège,Teccart,2 ans,250,16866,33732,https://www.teccart.qc.ca/informatique-de-gestion-dec.php,,,,
30000,Français,Montréal,Printemps,,DES,10,Pas de test de langue,,Informatique,Techniques de l'informatique ,DEC,Collège,Teccart,2 ans,250,17313,34626,https://www.teccart.qc.ca/gestion-de-reseaux-informatique.php,,,,
,Français,Montréal,,,Baccalauréat,12,Pas de test de langue,,Gestion,Diplôme d'études supérieures spécialisées en gestion,DESS,Université,Université du Québec à Montréal (UQAM),1 an,135,18000,18000,https://etudier.uqam.ca/programme/dess-gestion#bloc_presentation,,,,
,Français,Trois-Rivières,,,Baccalauréat,12,Pas de test de langue,,Gestion,Maîtrise en administration des affaires (3457),Maîtrise,Université,Université du Québec à Trois-Rivières (UQTR),2 ans,50,18000,36000,"https://oraprdnt.uqtr.uquebec.ca/pls/apex/f?p=106:10::::10:P10_CD_PGM,P10_RECH_CRITERE,P10_RECH_VALEUR,P10_RECH_DESC:3457,P2_CD_NIVEAU,MATR,%5CMa%C3%AEtrises%5C#",,"Plusieur spécialité, il faudra allez au lien pour faire le choix du programme et noter le code relié",,
,Anglais,Ottawa,,,Baccalauréat,12,IELTS,,Génie,Maîtrise en Science et génie des systèmes,Maîtrise,Université,Université d'Ottawa (uottawa),2 ANS,110,18346,27519,https://catalogue.uottawa.ca/fr/etudes-sup/maitrise-science-genie-systemes/,,,,
,Anglais,Ottawa,,,Baccalauréat,12,IELTS,,Génie,Maîtrise ès sciences appliquées Génie civil,Maîtrise,Université,Université d'Ottawa (uottawa),2 ANS,110,18346,27519,https://catalogue.uottawa.ca/fr/etudes-sup/maitrise-sciences-appliquees-genie-civil/,,,,
,Anglais,Ottawa,,,Baccalauréat,12,IELTS,,Génie,Maîtrise ès sciences Science et génie des systèmes,Maîtrise,Université,Université d'Ottawa (uottawa),2 ANS,110,18346,27519,https://catalogue.uottawa.ca/fr/etudes-sup/maitrise-sciences-science-genie-systemes/,,,,
,Anglais,Ottawa,,,Baccalauréat,12,,,Informatique,Maîtrise en informatique,Maîtrise,Université,Université d'Ottawa (uottawa),2 ANS,110,18346,27519,https://catalogue.uottawa.ca/fr/etudes-sup/maitrise-informatique/,,Être titulaire d'un baccalauréat en sciences en informatique ou en logiciel,,
,Français,Montréal,,,doctorat /Baccalauréat,12,,,Sciences,Maîtrise en physiologie,Maîtrise,Université,Université de Montréal,2 ANS,"109,5",18660,27990,https://admission.umontreal.ca/programmes/maitrise-en-physiologie/,2-525-1-0,"Note: 3.00/4,3. être titulaire d'un diplôme de doctorat en médecine (M.D.) ou en médecine dentaire (D.M.D.) ou en médecine vétérinaire (D.M.V.) ou d'un baccalauréat ès sciences (B. Sc.) dans une discipline appropriée, ou être titulaire d'un diplôme jugé équivalent, avoir obtenu, au 1er cycle, , faire preuve d'une bonne connaissance des langues française et anglaise.",,
,Français,Montréal,,,doctorat /Baccalauréat,12,,,Sciences,"Maîtrise en physiologie moléculaire, cellulaire et intégrative",Maîtrise,Université,Université de Montréal,2 ANS,"109,5",18660,27990,"être titulaire d'un diplôme de doctorat en médecine (M.D.) ou en médecine dentaire (D.M.D.) ou en médecine vétérinaire (D.M.V.) ou d'un baccalauréat ès sciences (B. Sc.) dans une discipline appropriée, ou être titulaire d'un diplôme jugé équivalent.Lettre d'intention ou de motivation
Curriculum vitae
Lettre d'acceptation d'un directeur de recherche
Plan de financement des études ou profil financier
Deux lettres de recommandation",2-525-1-1,"être titulaire d'un diplôme de doctorat en médecine (M.D.) ou en médecine dentaire (D.M.D.) ou en médecine vétérinaire (D.M.V.) ou d'un baccalauréat ès sciences (B. Sc.) dans une discipline appropriée, ou être titulaire d'un diplôme jugé équivalent",,
,Français,Montréal,,,Baccalauréat,12,,,finance,Maîtrise en finance mathématique et computationnelle,Maîtrise,Université,Université de Montréal,2 ANS,"109,5",18660,27990,https://admission.umontreal.ca/programmes/maitrise-en-finance-mathematique-et-computationnelle/,2-239-1-1,"être titulaire d'un des diplômes suivants : B. Sc. spécialisé en mathématiques, B. Sc. spécialisé bidisciplinaire en Mathématiques et Informatique, en Mathématiques et Physique, en Mathématiques et Économie, B. Sc. avec majeure en mathématiques ou encore attester d'une formation jugée équivalente, faire preuve d'une bonne connaissance du français et de l'anglais. Lettre d'intention ou de motivation
Curriculum vitae
Deux lettres de recommandation en français ou en anglais",,
,Français,Montréal,,,Baccalauréat,12,,,Finance,Maîtrise en finance mathématique et computationnelle,Maîtrise,Université,Université de Montréal,2 ANS,"109,5",18660,27990,https://admission.umontreal.ca/programmes/maitrise-en-finance-mathematique-et-computationnelle/,2-239-1-1,"faire preuve d'une bonne connaissance du français et de l'anglais.
",,
,Français,Montréal,,,Baccalauréat,12,,,Finance,Maîtrise en sciences économiques,Maîtrise,Université,Université de Montréal,2 ANS,"109,5",18660,27990,https://admission.umontreal.ca/programmes/maitrise-en-sciences-economiques/,2-240-1-0,3.0/4.3. Deux lettres de recommandation (Une seule lettre peut aussi provenir d'un employeur),,
,Français,Montréal,,,Baccalauréat,12,TFI,605/990,Informatique,Maîtrise en informatique,Maîtrise,Université,Université de Montréal,2 ANS,"109,5",18660,27990,https://admission.umontreal.ca/programmes/maitrise-en-informatique/,2-175-1-0,"3.0/4.3. être titulaire d'un B. Sc. spécialisé (informatique),",,
,Français,Montréal,,,Baccalauréat,12,,,Informatique,Maîtrise en sciences de la communication,Maîtrise,Université,Université de Montréal,2 ANS,"109,5",18660,27990,https://admission.umontreal.ca/programmes/maitrise-en-sciences-de-la-communication/,2-225-1-0,"3.0/4.3. être titulaire d'un B. Sc. spécialisé en communication ou d'un baccalauréat avec majeure en communication,",,
,Français,Montréal,,,Baccalauréat,12,,,Informatique,Maîtrise en droit des technologies de l'information,Maîtrise,Université,Université de Montréal,2 ANS,"109,5",18660,27990,https://admission.umontreal.ca/programmes/maitrise-en-droit-des-technologies-de-linformation/,2-329-1-0,"3.0/4.3. Une lettre de recommandation en français ou en anglais, Un exposé d'un maximum de trois pages faisant état des objectifs de formation et professionnels visés par le candidat au moment de demander son admission",,
,,Montréal,Automne,1er février,Baccalauréat,12,,,Sciences,Maîtrise en sciences biologiques,Maîtrise,Université,Université de Montréal,2 ans,"109,5",18661,27992,https://admission.umontreal.ca/programmes/maitrise-en-sciences-biologiques/,,,,
,Français,Québec,hiver,15 septembre,,12,,,Sciences,Doctorat en biophotonique,Doctorat,Université,Université Laval,4 ans,"89,5",18686,74744,https://www.fsg.ulaval.ca/etudes/programmes-detudes/doctorat-en-biophotonique/,,,,
,Anglais," Oshawa- Toronto, Ontario",,31 March,Baccalauréat,12,"IELTS , GMAT",,Graduate Certificate,Graduate Certificate - Business Human Resource & Graduate Certificate - Marketing Management (RRH),Graduate Degree,Université,Trent University - Durham GTA,24,100,19000,38000,https://www.trentu.ca/futurestudents/certificate/business-dual-certificate?target=undergraduate,,"70% dans un bachelor et 7.0 score in the IELTS , et GMAT optionnel",,
,Français,Sherbrooke,,,Baccalauréat,12,,,Sciences,Maîtrise en physiologie,Maîtrise,Université,Université de sherbrooke,2 ANS,90,19476,29214,https://www.usherbrooke.ca/admission/programme-pdf/634/maitrise-en-physiologie/,,"Détenir un grade de 1er cycle dans l'une des disciplines ou champs d'études suivants : biologie, biophysique, chimie, génie chimique, électrique ou mécanique, médecine, physique ou démontrer toute autre préparation jugée satisfaisante.",,
,Français,Québec,,,Baccalauréat,12,,,Finance,Diplôme d'études supérieures spécialisées en comptabilité,DESS,Université,Université Laval,1 ANS,"89,5",19668,19668,https://www.ulaval.ca/etudes/programmes/diplome-detudes-superieures-specialisees-en-comptabilite,,"baccalauréat en administration des affaires – expertise comptable ou un baccalauréat en administration des affaires, concentration en comptabilité, ou un diplôme équivalent.",,
,Français,Québec,,,Baccalauréat,12,,,Finance,Maîtrise en sciences de l'administration - comptabilité - avec mémoire,Maîtrise,Université,Université Laval,2 ANS,"89,5",19668,29502,https://www.ulaval.ca/etudes/programmes/maitrise-en-sciences-de-ladministration-comptabilite-avec-memoire,,"Note : 3.5/4.3. un baccalauréat, ou un diplôme jugé équivalent, en administration ou dans un domaine connexe.",,
,Français,Québec,,,Baccalauréat,12,,,Finance,Maîtrise en sciences de l'administration - finance - avec mémoire,Maîtrise,Université,Université Laval,2 ANS,"89,5",19668,29502,https://www.ulaval.ca/etudes/programmes/maitrise-en-sciences-de-ladministration-finance-avec-memoire#section-admissibilite,,"Note : 3.5/4.3. un baccalauréat, ou un diplôme jugé équivalent, en administration ou dans un domaine connexe.",,
,Français,Québec,,,Baccalauréat,12,,,Informatique,Maîtrise en informatique - avec mémoire,Maîtrise,Université,Université Laval,2 ANS,"89,5",19668,29502,https://www.ulaval.ca/etudes/programmes/maitrise-en-informatique-avec-memoire,,un baccalauréat en informatique ou un diplôme équivalent.,,
,Français,Montréal,,,Baccalauréat,12,Pas de test de langue,,Génie,Maîtrise en génie électrique,Maîtrise,Université,École de technologie supérieure ÉTS,2 ans ,125,19835,39670,https://www.etsmtl.ca/etudes/deuxieme-cycle/maitrise-genie-electrique,,3 lettres de recommandation,,
,Français,Montréal,,,Baccalauréat,12,Pas de test de langue,,Génie,Maîtrise en génie de la construction,Maîtrise,Université,École de technologie supérieure ÉTS,2 ans ,125,19835,39670,https://www.etsmtl.ca/etudes/deuxieme-cycle/maitrise-genie-construction,,3 lettres de recommandation,,
,Français,Montréal,,,Baccalauréat,12,Pas de test de langue,,Génie,Maîtrise en génie mécanique,Maîtrise,Université,École de technologie supérieure ÉTS,2 ans ,125,19835,39670,https://www.etsmtl.ca/etudes/deuxieme-cycle/maitrise-genie-mecanique,,3 lettres de recommandation,,
,Français,Montréal,,,Baccalauréat,12,Pas de test de langue,,Génie,Maîtrise en génie logiciel,Maîtrise,Université,École de technologie supérieure ÉTS,2 ans ,125,19835,39670,https://www.etsmtl.ca/etudes/deuxieme-cycle/maitrise-genie-logiciel,,3 lettres de recommandation,,
,Français,Montréal,,,Baccalauréat,12,,,Gestion,Maîtrise en administration des affaires (MBA),Maîtrise,Université,Université du Québec à Montréal (UQAM),2 ans,135,20000,30000,https://etudier.uqam.ca/programme?code=1892,1892,,,
,Français,Montréal,,,Baccalauréat,12,Pas de test de langue,,Technologies de l'information,Maîtrise ès sciences (technologies de l'information),Maîtrise,Université,Université du Québec à Montréal (UQAM),2 ANS,135,20000,30000,https://etudier.uqam.ca/programme?code=1758#bloc_presentation,3440,,,
,Français,Longueuil,,,DES,10,,,Santé,Soins infirmiers 180.A0,DEC,Collège ,Collège Ellis,3 ANS ,200,20126,60378,https://www.ellis.qc.ca/programmes/soins-infirmiers/,,,,
,Français,Montréal,Automne,,DES,10,Pas de test de langue/Possible test en anglais,,Informatique,DEC TÉLÉCOMMUNICATIONS 243.BA,DEC,Collège,Teccart,2 ans,250,20271,40542,https://www.teccart.qc.ca/telecommunications-dec.php,,,,
,Français,Trois-Rivières,,,DES,,Pas de test de langue,,Administration,Baccalauréat en administration des affaires,Baccalauréat,Université,Université du Québec à Trois-Rivières (UQTR),4 ans,"47,96","20376,56","81506,24","https://oraprdnt.uqtr.uquebec.ca/pls/apex/f?p=106:10::::10:P10_CD_PGM,P10_RECH_CRITERE,P10_RECH_VALEUR,P10_RECH_DESC:7264,P2_CD_NIVEAU,BACC",,,,
,Français,Québec,hiver,15 septembre,Baccalauréat,12,,,Sciences,Maîtrise en biophotonique - avec mémoire,Maîtrise,Université,Université Laval,2 ans,"89,5",20597,30896,https://www.fsg.ulaval.ca/etudes/programmes-detudes/maitrise-en-biophotonique-avec-memoire/,,,,
,Français,Québec,,,Baccalauréat,12,,,Sciences,Maîtrise et doctorat en médecine moléculaire,Maîtrise,Université,Université de Laval,2 ANS,"89,5",20597,30896,https://www.fmed.ulaval.ca/programmes-detudes/programmes-de-2e-et-3e-cycles/maitrises-et-doctorats-en-recherche/maitrise-et-doctorat-en-medecine-moleculaire/presentation/,,"2.67/4.33. baccalauréat ès sciences en sciences de la santé, ou un diplôme jugé équivalent, constitue une exigence minimale d'admission à ce programme. et avant de soumettre votre demande d'admission, vous êtes tenu de communiquer vous-même avec un directeur de recherche, une bonne compréhension de l'anglais écrit, ",,
,Français,Québec,,,Maîtrise,12,,,Sciences,Maîtrise et doctorat en médecine moléculaire,doctorat,Université,Université de Laval,2 ANS,"89,5",20597,30896,https://www.fmed.ulaval.ca/programmes-detudes/programmes-de-2e-et-3e-cycles/maitrises-et-doctorats-en-recherche/maitrise-et-doctorat-en-medecine-moleculaire/presentation/,,"maîtrise ès sciences,et avant de soumettre votre demande d'admission, vous êtes tenu de communiquer vous-même avec un directeur de recherche, une bonne compréhension de l'anglais écrit, ",,
,Français,Québec,,,Baccalauréat,12,,,,Maîtrise en physique - physique médicale - avec mémoire,Maîtrise,Université,Université de Laval,2 ANS,"89,5",20597,30896,https://www.ulaval.ca/etudes/programmes/maitrise-en-physique-physique-medicale-avec-memoire,,"3.00/4.33. baccalauréat en physique ou un diplôme équivalent, vous êtes tenu de communiquer vous-même avec un directeur de recherche,le candidat peut se voir imposer une scolarité préparatoire de cours de premier cycle pour lesquels il doit obtenir une note égale ou supérieure à B.",,
,Français,Québec,,,Baccalauréat,12,,,,Maîtrise en microbiologie-immunologie - avec mémoire,Maîtrise,Université,Université de Laval,2 ANS,"89,5",20597,30896,https://www.ulaval.ca/etudes/programmes/maitrise-en-microbiologie-immunologie-avec-memoire,," 2.67/4.33. baccalauréat en sciences de la santé ou un diplôme équivalent, vous êtes tenu de communiquer vous-même avec un directeur de recherche, Un nombre minimal de crédits en microbiologie et immunologie peut être exigé avant l'admission.",,
,Anglais,Ottawa,,,Baccalauréat,12,IELTS,,Gestion,Maîtrise en Gestion en ingénierie,Maîtrise,Université,Université d'Ottawa (uottawa),2 ANS,110,20602,30903,https://catalogue.uottawa.ca/fr/etudes-sup/maitrise-ingenierie-gestion-ingenierie-en-ligne/,,,,
,Anglais,Ottawa,,,Baccalauréat,12,IELTS,,Génie,Maîtrise en ingénierie en génie de l'environnement,Maîtrise,Université,Université d'Ottawa (uottawa),2 ANS,110,20602,30903,https://catalogue.uottawa.ca/fr/etudes-sup/maitrise-ingenierie-genie-lenvironnement/,,,,
,Anglais,Ottawa,,,Baccalauréat,12,IELTS,,Génie,Maîtrise en ingénierie Génie biomédical,Maîtrise,Université,Université d'Ottawa (uottawa),2 ANS,110,20602,30903,https://catalogue.uottawa.ca/fr/etudes-sup/maitrise-ingenierie-genie-biomedical/#exigencesdadmissiontext,,,,
,Anglais,Ottawa,,,Baccalauréat,12,IELTS,,Génie,Maîtrise en ingénierie Génie civil,Maîtrise,Université,Université d'Ottawa (uottawa),2 ANS,110,20602,30903,https://catalogue.uottawa.ca/fr/etudes-sup/maitrise-ingenierie-genie-civil/,,,,
,Anglais,Ottawa,,,Baccalauréat,12,IELTS,,Génie,Maîtrise en ingénierie Génie électrique et génie informatique,Maîtrise,Université,Université d'Ottawa (uottawa),2 ANS,110,20602,30903,https://catalogue.uottawa.ca/fr/etudes-sup/maitrise-ingenierie-genie-electrique-genie-informatique/,,,,
,Anglais,Ottawa,,,Baccalauréat,12,IELTS,,Génie,Maîtrise en ingénierie Génie mécanique,Maîtrise,Université,Université d'Ottawa (uottawa),2 ANS,110,20602,30903,https://catalogue.uottawa.ca/fr/etudes-sup/maitrise-ingenierie-genie-mecanique/,,,,
,Anglais,Ottawa,,,Baccalauréat,12,IELTS,,Génie,Maîtrise en ingénierie Gestion en ingénierie,Maîtrise,Université,Université d'Ottawa (uottawa),2 ANS,110,20602,30903,https://catalogue.uottawa.ca/fr/etudes-sup/maitrise-ingenierie-gestion-ingenierie/,,,,
,Anglais,Ottawa,,,Baccalauréat,12,,,Informatique,Maîtrise en informatique Concentration en intelligence artificielle appliquée,Maîtrise,Université,Université d'Ottawa (uottawa),2 ANS,110,20602,30903,https://catalogue.uottawa.ca/fr/etudes-sup/maitrise-informatique-specialisation-intelligenceartificielle/,,Être titulaire d'un baccalauréat en sciences en informatique ou en logiciel,,
,Anglais,Ottawa,,,Baccalauréat,12,,,Informatique,Maîtrise en informatique Spécialisation en bioinformatique,Maîtrise,Université,Université d'Ottawa (uottawa),2 ANS,110,20602,30903,https://catalogue.uottawa.ca/fr/etudes-sup/maitrise-informatique-specialisation-bioinformatique/,,Être titulaire d'un baccalauréat en sciences en informatique ou en logiciel,,
40000,Français,Montréal,,,DES,10,Pas de test de langue,,Electronique,Électronique industrielle,DEC,Collège,Teccart,2 ans,250,20850,41700,https://www.teccart.qc.ca/electronique-industrielle.php,,,,
,Français,Sudbury,,,DES,,,,Agriculture,Techniques agricoles,,Collège,Collège Boréal,2 ANS,350,20962,35227,https://www.collegeboreal.ca/programmes/agriculture-et-domaines-connexes/agrq-techniques-agricoles,,Diplôme d'études secondaires,,
,Français,Longueuil,,,DES,10,,,Santé,Techniques d’inhalothérapie,DEC,Collège ,Collège Ellis,3 ANS ,200,21002,63006,https://www.ellis.qc.ca/programmes/techniques-d-inhalotherapie/,,,,
,Français,Longueuil,,,DES,,,,Gestion,Baccalauréat en administration des affaires,Baccalauréat,Université,Université de sherbrooke,3 ANS,92,21244,63732,https://www.usherbrooke.ca/admission/programme/203/baccalaureat-en-administration-des-affaires/,,Condition générale d'admission aux programmes de 1er cycle de l'Université (cf. Règlement des études).,,
,Français,Montréal,,,DES,,,,Administration,Baccalauréat en administration ,Baccalauréat,Université,Université du Québec à Montréal (UQAM),3 ans,135,22000,66000,https://etudier.uqam.ca/programme?code=6561,,,,
,Français,Trois-Rivières,,,DES,10,,,Santé,Techniques d'électrophysiologie médicale,DEC,Collège ,Collège Ellis,3 ANS ,200,22178,66534,https://www.ellis.qc.ca/programmes/techniques-d-electrophysiologie-medicale/,,,,
,Français,Trois-Rivières,,,DES,10,,,Santé,Techniques de physiothérapie,DEC,Collège ,Collège Ellis,3 ANS ,200,22178,66534,https://www.ellis.qc.ca/programmes/techniques-de-physiotherapie/,,,,
,Français,Ottawa,,,Baccalauréat,12,,,Gestion,Maîtrise en administration des affaires (M.B.A.),Maîtrise,Université,Université d'Ottawa (uottawa),2 ANS,110,23320,34980,https://catalogue.uottawa.ca/fr/etudes-sup/maitrise-administration-affaires-mba/#text,,,,
100000,Français,Montréal,,,DES,,TCF,B2,Informatique,Baccalauréat en sciences naturelles et formelles : Informatique,Baccalauréat,Université,Université de Montréal  (UDEM),4 ans,"109,5","23684,4","94737,6",https://admission.umontreal.ca/programmes/baccalaureat-4-ans-en-sciences-naturelles-et-formelles/structure-du-programme/,,,,
,Anglais,"Langley, BC",,31 March,Baccalauréat,12,IELTS,7.0,International Business,Master of Business Administration (MBA) - International Business [31644],Maîtrise,Université,Trinity Western University - Langley,18,150,24300,36450,https://www.twu.ca/academics/school-graduate-studies/business-mba/admission-requirements,31644,"70% dans un bachelor et 7.0 score in the IELTS , et GMAT optionnel",,
,,Montréal,Automne,1er février,DES,,TEF Express,,Sciences,Baccalauréat en sciences biologiques,Baccalauréat,Université,Université de Montréal,3 ans,"109,5",24607,73821,https://admission.umontreal.ca/programmes/baccalaureat-en-sciences-biologiques/,,UNE ANNÉE D’ÉTUDES UNIVERSITAIRES RÉUSSIE OU ou l' année préparatoire UdeM,,
,,Montréal,Automne,1er février,DES,,TFI,B2,Sciences,Baccalauréat en biochimie et médecine moléculaire,Baccalauréat,Université,Université de Montréal,3 ans,"109,5",24607,73821,https://admission.umontreal.ca/programmes/baccalaureat-en-biochimie-et-medecine-moleculaire/,,UNE ANNÉE D’ÉTUDES UNIVERSITAIRES RÉUSSIE OU ou l' année préparatoire UdeM,,
,,Montréal,Automne,1er février,DES,,TFI,B2,Sciences,Baccalauréat en psychologie et sociologie,Baccalauréat,Université,Université de Montréal,3 ans,"109,5",24607,73821,https://admission.umontreal.ca/programmes/baccalaureat-en-psychologie-et-sociologie/,,UNE ANNÉE D’ÉTUDES UNIVERSITAIRES RÉUSSIE OU ou l' année préparatoire UdeM,,
,,Montréal,Automne,1er février,DES,,TFI,B2,Sciences,Baccalauréat en sciences économiques,Baccalauréat,Université,Université de Montréal,3 ans,"109,5",24607,73821,https://admission.umontreal.ca/programmes/baccalaureat-en-sciences-economiques/,,UNE ANNÉE D’ÉTUDES UNIVERSITAIRES RÉUSSIE OU ou l' année préparatoire UdeM,,
,,Montréal,Automne,1er février,DES,,TFI,B2,Sciences,Baccalauréat en science politique,Baccalauréat,Université,Université de Montréal,3 ans,"109,5",24607,73821,https://admission.umontreal.ca/programmes/baccalaureat-en-science-politique/,,UNE ANNÉE D’ÉTUDES UNIVERSITAIRES RÉUSSIE OU ou l' année préparatoire UdeM,,
90000,Français,Montréal,,,DES,,TEF ,C2,Sciences,Baccalauréat en architecture,Baccalauréat,Université,Université de Montréal,3 ANS,"109,5",24607,77921,https://admission.umontreal.ca/programmes/baccalaureat-en-architecture/,,UNE ANNÉE D’ÉTUDES UNIVERSITAIRES RÉUSSIE OU ou l' année préparatoire UdeM,,
95000,Français,Montréal,,,DES,,TEF ,B2,Sciences,Baccalauréat en bio-informatique,Baccalauréat,Université,Université de Montréal,3 ANS,"109,5",24607,73821,https://admission.umontreal.ca/programmes/baccalaureat-en-bio-informatique/,,UNE ANNÉE D’ÉTUDES UNIVERSITAIRES RÉUSSIE OU ou l' année préparatoire UdeM,,
100000,Français,Montréal,,,DES,,TEF ,B2,Sciences,Baccalauréat en sciences biologiques,Baccalauréat,Université,Université de Montréal,3 ANS,"109,5",24607,73821,https://admission.umontreal.ca/programmes/baccalaureat-en-sciences-biologiques/,,UNE ANNÉE D’ÉTUDES UNIVERSITAIRES RÉUSSIE OU ou l' année préparatoire UdeM,,
,Français,Montréal,,,DES,,TEF ,B2,Sciences,Baccalauréat en chimie,Baccalauréat,Université,Université de Montréal,3 ANS,"109,5",24607,73821,https://admission.umontreal.ca/programmes/baccalaureat-en-chimie/,,UNE ANNÉE D’ÉTUDES UNIVERSITAIRES RÉUSSIE OU ou l' année préparatoire UdeM,,
,Français,Montréal,,,DES,,TEF ,B2,Sciences,Baccalauréat en sciences de la communication,Baccalauréat,Université,Université de Montréal,3 ANS,"109,5",24607,73821,https://admission.umontreal.ca/programmes/baccalaureat-en-sciences-de-la-communication/,,UNE ANNÉE D’ÉTUDES UNIVERSITAIRES RÉUSSIE OU ou l' année préparatoire UdeM,,
,Français,Montréal,,,DES,,TEF ,B2,Sciences,Baccalauréat en criminologie,Baccalauréat,Université,Université de Montréal,3 ANS,"109,5",24607,73821,https://admission.umontreal.ca/programmes/baccalaureat-en-criminologie/,,UNE ANNÉE D’ÉTUDES UNIVERSITAIRES RÉUSSIE OU ou l' année préparatoire UdeM,,
,Français,Montréal,,,DES,,TEF ,C1,,Baccalauréat en design d'intérieur,Baccalauréat,Université,Université de Montréal,3 ANS,"109,5",24607,73821,https://admission.umontreal.ca/programmes/baccalaureat-en-design-dinterieur/,,UNE ANNÉE D’ÉTUDES UNIVERSITAIRES RÉUSSIE OU ou l' année préparatoire UdeM,,
,Français,Montréal,,,DES,,TEF ,B2,Sciences,Baccalauréat en économie et politique,Baccalauréat,Université,Université de Montréal,3 ANS,"109,5",24607,73821,https://admission.umontreal.ca/programmes/baccalaureat-en-economie-et-politique/,,UNE ANNÉE D’ÉTUDES UNIVERSITAIRES RÉUSSIE OU ou l' année préparatoire UdeM,,
,Français,Montréal,,,DES,,TEF ,B2,Sciences,Baccalauréat en informatique,Baccalauréat,Université,Université de Montréal,3 ANS,"109,5",24607,73821,https://admission.umontreal.ca/programmes/baccalaureat-en-informatique/,3842,UNE ANNÉE D’ÉTUDES UNIVERSITAIRES RÉUSSIE OU ou l' année préparatoire UdeM,,
,Français,Montréal,,,DES,,TEF ,B2,Sciences,Baccalauréat en kinésiologie,Baccalauréat,Université,Université de Montréal,3 ANS,"109,5",24607,73821,https://admission.umontreal.ca/programmes/baccalaureat-en-kinesiologie/,,UNE ANNÉE D’ÉTUDES UNIVERSITAIRES RÉUSSIE OU ou l' année préparatoire UdeM,,
,Français,Montréal,,,DES,,TEF ,B2,Sciences,Baccalauréat en mathématiques,Baccalauréat,Université,Université de Montréal,3 ANS,"109,5",24607,73821,https://admission.umontreal.ca/programmes/baccalaureat-en-mathematiques/,,UNE ANNÉE D’ÉTUDES UNIVERSITAIRES RÉUSSIE OU ou l' année préparatoire UdeM,,
,Français,Montréal,,,DES,,TCF,C2,Génie,Baccalauréat en génie électrique,Baccalauréat,Université,École de technologie supérieure ÉTS,4 ans,125,25462,101848,https://www.etsmtl.ca/etudes/premier-cycle/Baccalaureat-genie-electrique,,"avoir obtenu un DUT délivré par une université française avec une moyenne cumulative supérieure ou égale à 11,50/20.",,
,Français,Montréal,,,DES,,TCF,C2,Génie,Baccalauréat en génie de la construction,Baccalauréat,Université,École de technologie supérieure ÉTS,4 ans,125,25462,101848,https://www.etsmtl.ca/etudes/premier-cycle/baccalaureat-genie-construction,,"avoir obtenu un DUT délivré par une université française avec une moyenne cumulative supérieure ou égale à 11,50/20.",,
,Français,Montréal,,,DES,,TCF,C2,Génie,BACCALAURÉAT EN GÉNIE LOGICIEL,Baccalauréat,Université,École de technologie supérieure ÉTS,4 ans,125,25462,101848,https://www.etsmtl.ca/etudes/premier-cycle/Baccalaureat-genie-logiciel,,"avoir obtenu un DUT délivré par une université française avec une moyenne cumulative supérieure ou égale à 11,50/20.",,
,Français,Montréal,,,DES,,TCF,C2,Génie,BACCALAURÉAT EN GÉNIE MÉCANIQUE,Baccalauréat,Université,École de technologie supérieure ÉTS,4 ans,125,25462,101848,https://www.etsmtl.ca/etudes/premier-cycle/Baccalaureat-genie-mecanique,,"avoir obtenu un DUT délivré par une université française avec une moyenne cumulative supérieure ou égale à 11,50/20.",,
,Français,Montréal,,,DES,,TCF,C2,Génie,BACCALAURÉAT EN GÉNIE DES OPÉRATIONS ET DE LA LOGISTIQUE,Baccalauréat,Université,École de technologie supérieure ÉTS,4 ans,125,25462,101848,https://www.etsmtl.ca/etudes/premier-cycle/Baccalaureat-genie-operations-logistique,,"avoir obtenu un DUT délivré par une université française avec une moyenne cumulative supérieure ou égale à 11,50/20.",,
,Français,Montréal,,,DES,,TCF,C2,Génie,BACCALAURÉAT EN GÉNIE DE LA PRODUCTION AUTOMATISÉE,Baccalauréat,Université,École de technologie supérieure ÉTS,4 ans,125,25462,101848,https://www.etsmtl.ca/etudes/premier-cycle/Baccalaureat-genie-production-automatisee,,"avoir obtenu un DUT délivré par une université française avec une moyenne cumulative supérieure ou égale à 11,50/20.",,
,Français,Montréal,,,DES,,,,Génie,BACCALAURÉAT EN GÉNIE AÉROSPATIAL,Baccalauréat,Université,Polytechnique Montréal,4 ans,93.45,25800,103200,https://www.polymtl.ca/futur/aerospatial,,,,
,Français,Montréal,,,DES,,,,Génie,BACCALAURÉAT EN GÉNIE BIOMÉDICAL,Baccalauréat,Université,Polytechnique Montréal,4 ans,93.45,25800,103200,https://www.polymtl.ca/futur/biomedical,,,,
,Français,Montréal,,,DES,,,,Génie,BACCALAURÉAT EN GÉNIE CHIMIQUE,Baccalauréat,Université,Polytechnique Montréal,4 ans,93.45,25800,103200,https://www.polymtl.ca/futur/chimique,,,,
,Français,Montréal,,,DES,,,,Génie,BACCALAURÉAT EN GÉNIE CIVIL,Baccalauréat,Université,Polytechnique Montréal,4 ans,93.45,25800,103200,https://www.polymtl.ca/futur/civil,,,,
,Français,Montréal,,,DES,,,,Génie,BACCALAURÉAT EN GÉNIE ÉLECTRIQUE,Baccalauréat,Université,Polytechnique Montréal,4 ans,93.45,25800,103200,https://www.polymtl.ca/futur/electrique,,,,
,Français,Montréal,,,DES,,,,Génie,BACCALAURÉAT EN GÉNIE GÉOLOGIQUE,Baccalauréat,Université,Polytechnique Montréal,4 ans,93.45,25800,103200,https://www.polymtl.ca/futur/geologique,,,,
,Français,Montréal,,,DES,,,,Génie,BACCALAURÉAT EN GÉNIE INDUSTRIEL,Baccalauréat,Université,Polytechnique Montréal,4 ans,93.45,25800,103200,https://www.polymtl.ca/futur/industriel,,,,
,Français,Montréal,,,DES,,,,Génie,BACCALAURÉAT EN GÉNIE INFORMATIQUE,Baccalauréat,Université,Polytechnique Montréal,4 ans,93.45,25800,103200,https://www.polymtl.ca/futur/informatique,,,,
,Français,Montréal,,,DES,,,,Génie,BACCALAURÉAT EN GÉNIE LOGICIEL,Baccalauréat,Université,Polytechnique Montréal,4 ans,93.45,25800,103200,https://www.polymtl.ca/futur/logiciel,,,,
,Français,Montréal,,,DES,,,,Génie,BACCALAURÉAT EN GÉNIE MÉCANIQUE,Baccalauréat,Université,Polytechnique Montréal,4 ans,93.45,25800,103200,https://www.polymtl.ca/futur/mecanique,,,,
,Français,Montréal,,,DES,,,,Génie,BACCALAURÉAT EN GÉNIE DES MINES,Baccalauréat,Université,Polytechnique Montréal,4 ans,93.45,25800,103200,https://www.polymtl.ca/futur/mines,,,,
,Français,Montréal,,,DES,,,,Génie,BACCALAURÉAT EN GÉNIE PHYSIQUE,Baccalauréat,Université,Polytechnique Montréal,4 ans,93.45,25800,103200,https://www.polymtl.ca/futur/physique,,,,
,Anglais,"Windsor, ON",,28 février,Baccalauréat,12,IELTS ,,Logistics and Supply Chain,Master of Management - Logistics and Supply Chain - ,Maîtrise,Université,University of Windsor,18,150,28000,42000,https://www.uwindsor.ca/business/370/program-requirements,,70% dans un bachelor et 7.0 score in the IELTS ,,
,Français,Ottawa,,,DES,,IELTS,7,Sciences,B.Sc. spécialisé en biochimie,Baccalauréat,Université,Université d'Ottawa (uottawa),4 ans,110,28778,115112,https://catalogue.uottawa.ca/fr/premier-cycle/bsc-specialise-biochimie/,,,,
,Français,Ottawa,,,DES,,IELTS,7,Sciences,B.Sc. spécialisé en biologie,Baccalauréat,Université,Université d'Ottawa (uottawa),4 ans,110,28778,115112,https://catalogue.uottawa.ca/fr/premier-cycle/bsc-specialise-biologie/,,,,
,Français,Montréal,,,DES,,,,Gestion,BACCALAURÉAT EN ADMINISTRATION DES AFFAIRES AVEC ANNÉE PRÉPARATOIRE (B.A.A.),Baccalauréat,Université,HEC,4 ANS,"302,64",29600,118400,https://www.hec.ca/programmes/baccalaureats/baa-avec-annee-preparatoire/index.html,,Séries sciences expérimentales ou mathématiques avec une mention Bien (14/20) ou mieux,,
,Anglais,"Vancouver, BC",,31 March,Baccalauréat,12,IELTS ,6.0,Business Administration - Management ,Master of Business Administration - Management [7085],Maîtrise,Université,"New York Institute of Technology - Vancouver (NYIT)
",18,75,33000,49500,https://www.nyit.edu/vancouver/management_mba_contact,7085,"70% dans un bachelor et 7.0 score in the IELTS , et GMAT optionnel",,
,,,,,,,,,,Maîtrise en biochimie,,,,,135,,3056,https://etudier.uqam.ca/programme/maitrise-biochimie#bloc_presentation,3056,,,
,Français,Ottawa,,,DES,10,,,Santé,SOINS INFIRMIERS AUXILIAIRES,DEC,Collège,Collège La Cité,2 ans,350,,,https://www.collegelacite.ca/programmes/51538.htm,,,,
,Français,Montréal,,,DES,10,,,Santé,"SANTÉ, ASSISTANCE ET SOINS INFIRMIERS (FRANÇAIS) - 5325",DEP,Collège,Collège CDI,18 Mois,350,,,https://www.collegecdi.ca/quebec/programmes-et-cours/soins-de-sante/sante-assistance-et-soins-infirmiers-francais-5325/,,,,
,Français,Montréal,,,DES,12,,,Gestion,Baccalauréat en administration: Concentration technologies d'affaires,Baccalauréat,Université,Université du Québec à Montréal (UQAM),3 ans,135,,,https://etudier.uqam.ca/programme/baccalaureat-administration,7320,Être titulaire d'un diplôme approprié obtenu à l'extérieur du Québec après au moins treize années (1) de scolarité ou l'équivalent.,,
,Français,Montréal,Automne,,DES,10,Pas de test de langue/Possible test en anglais,,Sciences,DEC Sciences de la nature 200.B0,DEC,Collège,Teccart,2 ans,250,,,https://www.teccart.qc.ca/sciences-de-la-nature-dec.php,,,,
,Français,Montréal,Automne,,DES,10,Pas de test de langue/Possible test en anglais,,Sciences,DEC Sciences humaines 300.A0,DEC,Collège,Teccart,2 ans,250,,,https://www.teccart.qc.ca/sciences-humaines-dec.php,,,,
,Français,Ottawa,,,DES,,,,Gestion,Baccalauréat en sciences commerciales spécialisé (option en gestion des technologies d'affaires),Baccalauréat,Université,Université d'Ottawa (uottawa),4 ANS,110,12296,49184,https://catalogue.uottawa.ca/fr/premier-cycle/baccalaureat-sciences-commerciales-specialise-option-gestion-technologies-daffaires/,,des compétences de base et une expertise en systèmes d'information de gestion et en analytique d'affaires.,,
,Français,Ottawa,,,DES,,,,Gestion,Baccalauréat en sciences commerciales spécialisé (option analytique en soins de santé),Baccalauréat,Université,Université d'Ottawa (uottawa),4 ANS,110,12296,49184,https://catalogue.uottawa.ca/fr/premier-cycle/baccalaureat-sciences-commerciales-specialise-option-analytique-soins-sante/,,,,
,Français,Ottawa,,,DES,,,,Gestion,Baccalauréat en sciences commerciales spécialisé (option analytique en soins de santé) (option complémentaire en entrepreneuriat),Baccalauréat,Université,Université d'Ottawa (uottawa),4 ANS,110,12296,49184,https://catalogue.uottawa.ca/fr/premier-cycle/baccalaureat-sciences-commerciales-specialise-option-analytique-soins-sante-option-complementaire-entrepreneuriat/,,,,
,Français,Ottawa,,,DES,,,,Gestion,https://catalogue.uottawa.ca/fr/premier-cycle/baccalaureat-sciences-commerciales-specialise-option-comptabilite/,Baccalauréat,Université,Université d'Ottawa (uottawa),4 ANS,110,12296,49184,https://catalogue.uottawa.ca/fr/premier-cycle/baccalaureat-sciences-commerciales-specialise-option-comptabilite-option-complementaire-analytique-gestion/,,,,
,Français,Ottawa,,,DES,,,,Gestion,Baccalauréat en sciences commerciales spécialisé (option en comptabilité) (option complémentaire en analytique de gestion),Baccalauréat,Université,Université d'Ottawa (uottawa),4 ANS,110,12296,49184,https://catalogue.uottawa.ca/fr/premier-cycle/baccalaureat-sciences-commerciales-specialise-option-comptabilite-option-complementaire-analytique-gestion/,,,,
,Français,Ottawa,,,DES,,,,Gestion,Baccalauréat en sciences commerciales spécialisé (option en comptabilité) (option complémentaire en entrepreneuriat),Baccalauréat,Université,Université d'Ottawa (uottawa),4 ANS,110,12296,49184,https://catalogue.uottawa.ca/fr/premier-cycle/baccalaureat-sciences-commerciales-specialise-option-comptabilite-option-complementaire-entrepreneuriat/,,,,
,Français,Ottawa,,,DES,,,,Gestion,Baccalauréat en sciences commerciales spécialisé (option en finance) (option complémentaire en analytique de gestion),Baccalauréat,Université,Université d'Ottawa (uottawa),4 ANS,110,12296,49184,https://catalogue.uottawa.ca/fr/premier-cycle/baccalaureat-sciences-commerciales-specialise-option-finance-option-complementaire-analytique-gestion/,,,,
,Français,Ottawa,,,DES,,,,Gestion,Baccalauréat en sciences commerciales spécialisé (option en finance) (option complémentaire en entrepreneuriat),Baccalauréat,Université,Université d'Ottawa (uottawa),4 ANS,110,12296,49184,https://catalogue.uottawa.ca/fr/premier-cycle/baccalaureat-sciences-commerciales-specialise-option-finance-option-complementaire-entrepreneuriat/,,,,
,Français,Ottawa,,,DES,,,,Gestion,Baccalauréat en sciences commerciales spécialisé (option en comptabilité) (option complémentaire en entrepreneuriat),Baccalauréat,Université,Université d'Ottawa (uottawa),4 ANS,110,12296,49184,https://catalogue.uottawa.ca/fr/premier-cycle/baccalaureat-sciences-commerciales-specialise-option-comptabilite-option-complementaire-entrepreneuriat/,,,,
,Français,Ottawa,,,DES,,,,Gestion,Baccalauréat en sciences commerciales spécialisé (option en gestion des ressources humaines),Baccalauréat,Université,Université d'Ottawa (uottawa),4 ANS,110,12296,49184,https://catalogue.uottawa.ca/fr/premier-cycle/baccalaureat-sciences-commerciales-specialise-option-gestion-ressources-humaines/,,,,
,Français,Ottawa,,,DES,,,,Gestion,Baccalauréat en sciences commerciales spécialisé (option en gestion des ressources humaines) (option complémentaire en analytique de gestion),Baccalauréat,Université,Université d'Ottawa (uottawa),4 ANS,110,12296,49184,https://catalogue.uottawa.ca/fr/premier-cycle/baccalaureat-sciences-commerciales-specialise-option-gestion-ressources-humaines-option-complementaire-analytique-gestion/,,,,
,Français,Ottawa,,,DES,,,,Gestion,Baccalauréat en sciences commerciales spécialisé (option en gestion des ressources humaines) (option complémentaire en entrepreneuriat),Baccalauréat,Université,Université d'Ottawa (uottawa),4 ANS,110,12296,49184,https://catalogue.uottawa.ca/fr/premier-cycle/baccalaureat-sciences-commerciales-specialise-option-gestion-ressources-humaines-option-complementaire-entrepreneuriat/,,,,
,Français,Ottawa,,,DES,,,,Gestion,Baccalauréat en sciences commerciales spécialisé (option en gestion des technologies d'affaires),Baccalauréat,Université,Université d'Ottawa (uottawa),4 ANS,110,12296,49184,https://catalogue.uottawa.ca/fr/premier-cycle/baccalaureat-sciences-commerciales-specialise-option-gestion-technologies-daffaires/,,,,
,Français,Ottawa,,,DES,,,,Gestion,Baccalauréat en sciences commerciales spécialisé (option en gestion des technologies d'affaires) (option complémentaire en entrepreneuriat),Baccalauréat,Université,Université d'Ottawa (uottawa),4 ANS,110,12296,49184,https://catalogue.uottawa.ca/fr/premier-cycle/baccalaureat-sciences-commerciales-specialise-gestion-technologies-daffaires-option-complementaire-entrepreneuriat/,,,,
,Français,Ottawa,,,DES,,,,Gestion,Baccalauréat en sciences commerciales spécialisé (option en gestion internationale),Baccalauréat,Université,Université d'Ottawa (uottawa),4 ANS,110,12296,49184,https://catalogue.uottawa.ca/fr/premier-cycle/baccalaureat-sciences-commerciales-specialise-option-gestion-internationale/,,,,
,Français,Ottawa,,,DES,,,,Gestion,Baccalauréat en sciences commerciales spécialisé (option en gestion internationale) (option complémentaire en entrepreneuriat),Baccalauréat,Université,Université d'Ottawa (uottawa),4 ANS,110,12296,49184,https://catalogue.uottawa.ca/fr/premier-cycle/baccalaureat-sciences-commerciales-specialise-option-gestion-internationale-option-complementaire-entrepreneuriat/,,,,
,Français,Ottawa,,,DES,,,,Gestion,Baccalauréat en sciences commerciales spécialisé (option en management),Baccalauréat,Université,Université d'Ottawa (uottawa),4 ANS,110,12296,49184,https://catalogue.uottawa.ca/fr/premier-cycle/baccalaureat-sciences-commerciales-specialise-option-management/,,,,
,Français,Ottawa,,,DES,,,,Gestion,Baccalauréat en sciences commerciales spécialisé (option en management) (option complémentaire en analutique de gestion),Baccalauréat,Université,Université d'Ottawa (uottawa),4 ANS,110,12296,49184,https://catalogue.uottawa.ca/fr/premier-cycle/baccalaureat-sciences-commerciales-specialise-option-management-option-complementaire-analytique-gestion/,,,,
,Français,Ottawa,,,DES,,,,Gestion,Baccalauréat en sciences commerciales spécialisé (option en management) (option complémentaire en entrepreneuriat),Baccalauréat,Université,Université d'Ottawa (uottawa),4 ANS,110,12296,49184,https://catalogue.uottawa.ca/fr/premier-cycle/baccalaureat-sciences-commerciales-specialise-option-management-option-complementaire-entrepreneuriat/,,,,
,Français,Ottawa,,,DES,,,,Gestion,Baccalauréat en sciences commerciales spécialisé (option en marketing),Baccalauréat,Université,Université d'Ottawa (uottawa),4 ANS,110,12296,49184,https://catalogue.uottawa.ca/fr/premier-cycle/baccalaureat-sciences-commerciales-specialise-option-marketing/,,,,
,Français,Ottawa,,,DES,,,,Gestion,Baccalauréat en sciences commerciales spécialisé (option en marketing) (option complémentaire en analytique de gestion),Baccalauréat,Université,Université d'Ottawa (uottawa),4 ANS,110,12296,49184,https://catalogue.uottawa.ca/fr/premier-cycle/baccalaureat-sciences-commerciales-specialise-option-marketing-option-complementaire-analytique-gestion/,,,,
,Français,Ottawa,,,DES,,,,Gestion,Baccalauréat en sciences commerciales spécialisé (option en marketing) (option complémentaire en entrepreneuriat),Baccalauréat,Université,Université d'Ottawa (uottawa),4 ANS,110,12296,49184,https://catalogue.uottawa.ca/fr/premier-cycle/baccalaureat-sciences-commerciales-specialise-option-marketing-option-complementaire-entrepreneuriat/,,,,
,Français,Ottawa,,,DES,,,,Gestion,Baccalauréat en sciences commerciales spécialisé en comptabilité,Baccalauréat,Université,Université d'Ottawa (uottawa),4 ANS,110,12296,49184,https://catalogue.uottawa.ca/fr/premier-cycle/baccalaureat-sciences-commerciales-specialise-comptabilite/,,,,
,Français,Ottawa,,,DES,,,,Gestion,Baccalauréat en sciences commerciales spécialisé et Juris Doctor,Baccalauréat,Université,Université d'Ottawa (uottawa),4 ANS,110,12296,49184,https://catalogue.uottawa.ca/fr/premier-cycle/baccalaureat-sciences-commerciales-specialise-juris-doctor/,,,,
,Français,Ottawa,,,Bac,,,,Gestion,Maîtrise en administration des affaires (M.B.A.),Maîtrise,Université,Université d'Ottawa (uottawa),2 ANS,110,16848,25272,https://catalogue.uottawa.ca/fr/etudes-sup/maitrise-administration-affaires-mba/,,Les étudiants dont la langue maternelle n'est ni le français ni l'anglais doivent soumettre une attestation prouvant leur compétence linguistique dans une de ces langues.trois années d'expérience de travail à temps complet,,
,Français,Ottawa,,,Bac,,,,Gestion,Maîtrise en affaires de leadership de projets complexes,Maîtrise,Université,Université d'Ottawa (uottawa),2 ANS,110,16848,25272,https://catalogue.uottawa.ca/fr/etudes-sup/maitrise-administration-leadership-projets-complexes/,,"Les candidats sont habituellement parrainés par leur employeur, ce qui indique que l'employeur comprend la situation et convient d'accorder le temps nécessaire à son employé pour terminer le programme, et qu'il reconnaît que cet employé entreprendra des projets sur son lieu de travail. Cela sous-entend que, bien que les organisations puissent faire appel à leur processus de gestion des talents pour sélectionner des candidats à l'interne, l'ultime décision quant à l'admission revient à l'Université d'Ottawa.",,
,Français,Ottawa,,,Bac,,,,Gestion,Maîtrise en gestion des services de santé (M.G.S.S.),Maîtrise,Université,Université d'Ottawa (uottawa),2 ANS,110,15732,25272,https://catalogue.uottawa.ca/fr/etudes-sup/maitrise-gestion-services-sante-mgss/,,"L'admission au programme de maîtrise en gestion des services de santé (M.G.S.S.) est ouverte aux titulaires d'un baccalauréat canadien ou d'un diplôme équivalent. Une moyenne générale d'au moins « B » (70 %) est requise. Les études supérieures déterminent l'équivalence des diplômes pour les candidats en provenance des universités étrangères. Par ailleurs, un nombre limité de demandes d'admission, provenant de personnes qui ne détiennent pas de baccalauréat canadien ou l’équivalent ou ne satisfont pas aux exigences minimales, peuvent être prises en considération, à condition que ces personnes aient acquis une expérience professionnelle considérable notamment en gestion (normalement 10 ans ou plus).",,
,Français,Ottawa,,,Bac,,,,sciences,Maîtrise ès sciences Durabilité de l'environnement,Maîtrise,Université,Université d'Ottawa (uottawa),2 ANS,110,16848,25272,https://catalogue.uottawa.ca/fr/etudes-sup/maitrise-sciences-durabilite-lenvironnement/,,il faut être titulaire d'un diplôme de baccalauréat approfondi ou l’équivalent dans une discipline pertinente et avoir obtenu une moyenne minimum de B (70 %) calculée en accord avec les lignes directrices des études supérieures.,,
,Français,Ottawa,,,Bac,,,,Gestion,Maîtrise ès sciences Gestion,Maîtrise,Université,Université d'Ottawa (uottawa),2 ANS,110,16848,25272,https://catalogue.uottawa.ca/fr/etudes-sup/maitrise-sciences-gestion/,,"Les candidats au programme de maîtrise ès sciences (M.Sc.) en gestion doivent être titulaires d’un baccalauréat spécialisé couronnant quatre années d’études en gestion, sciences, informatique, économie, sciences sociales ou ingénierie. Ils doivent également détenir l’équivalent de la « mineure en administration » ou de « option gestion et entrepreneuriat en ingénierie » de l’Université d’Ottawa. Ils doivent en outre avoir obtenu une moyenne pondérée cumulative (MPC) d’au moins 75 % (B+), calculée selon les lignes directrices des études supérieures. Les candidats dont la formation en gestion est insuffisante pourraient être tenus de prendre des cours préalables pour être admis. Les exigences précises du programme de propédeutique seront établies par le comité d’admission en fonction du profil scolaire et professionnel du candidat.",,
,Français,Ottawa,,,Bac,,,,sciences,Maîtrise ès sciences Gestion Spécialisation en durabilité de l'environnement,Maîtrise,Université,Université d'Ottawa (uottawa),2 ANS,110,16848,25272,https://catalogue.uottawa.ca/fr/etudes-sup/maitrise-sciences-gestion-specialisation-durabilite-lenvironnement/,,"Les candidats au programme de maîtrise ès sciences (M.Sc.) en gestion doivent être titulaires d’un baccalauréat spécialisé couronnant quatre années d’études en gestion, sciences, informatique, économie, sciences sociales ou ingénierie. Ils doivent également détenir l’équivalent de la « mineure en administration » ou de « option gestion et entrepreneuriat en ingénierie » de l’Université d’Ottawa. Ils doivent en outre avoir obtenu une moyenne pondérée cumulative (MPC) d’au moins 75 % (B+), calculée selon les lignes directrices des études supérieures. Les candidats dont la formation en gestion est insuffisante pourraient être tenus de prendre des cours préalables pour être admis. Les exigences précises du programme de propédeutique seront établies par le comité d’admission en fonction du profil scolaire et professionnel du candidat.",,
,Français,Ottawa,,,Bac,,,,sciences,Maîtrise ès sciences Systèmes de santé,Maîtrise,Université,Université d'Ottawa (uottawa),2 ANS,110,16848,25272,https://catalogue.uottawa.ca/fr/etudes-sup/maitrise-sciences-systemes-sante/,,"Les candidats doivent être titulaires d’un baccalauréat spécialisé couronnant quatre années d’études en gestion (B.Com.), sciences de la santé, sciences de la vie, médecine, sciences infirmières, informatique, économie, sciences sociales, ingénierie, mathématiques ou dans une discipline connexe; ils doivent avoir obtenu une moyenne pondérée cumulative (MPC) d’au moins 75 % (B+) calculée selon les lignes directives des études supérieures.",,
,Français,Ottawa,,,Bac,,,,sciences,Maîtrise ès sciences Systèmes de santé Spécialisation en durabilité de l'environnement,Maîtrise,Université,Université d'Ottawa (uottawa),2 ANS,110,16848,25272,https://catalogue.uottawa.ca/fr/etudes-sup/maitrise-sciences-systemes-sante-specialisation-durabilite-lenvironnement/,,"Les candidats doivent être titulaires d’un baccalauréat spécialisé couronnant quatre années d’études en gestion (B.Com.), sciences de la santé, sciences de la vie, médecine, sciences infirmières, informatique, économie, sciences sociales, ingénierie, mathématiques ou dans une discipline connexe; ils doivent avoir obtenu une moyenne pondérée cumulative (MPC) d’au moins 75 % (B+) calculée selon les lignes directives des études supérieures.",,